<?xml version="1.0" encoding="UTF-8"?>
<svg width="30px" height="30px" viewBox="0 0 30 30" version="1.1" xmlns="http://www.w3.org/2000/svg" xmlns:xlink="http://www.w3.org/1999/xlink">
    <!-- Generator: sketchtool 48.2 (47327) - http://www.bohemiancoding.com/sketch -->
    <title>DAE465DE-D9FB-4A24-A8D3-5385165C1928@1x</title>
    <desc>Created with sketchtool.</desc>
    <defs>
        <polygon id="path-1" points="0 26.6000002 20.996733 26.6000002 20.996733 0.227266661 0 0.227266661"></polygon>
    </defs>
    <g id="Assets" stroke="none" stroke-width="1" fill="none" fill-rule="evenodd" transform="translate(-52.000000, -162.000000)">
        <g id="Logo" transform="translate(52.000000, 162.000000)">
            <rect id="Rectangle-2" stroke="#979797" stroke-width="0.01" x="0.005" y="0.005" width="29.99" height="29.99"></rect>
            <g id="Black-Signet" transform="translate(4.000000, 1.000000)">
                <g id="Page-1" transform="translate(0.933333, 0.466667)">
                    <g id="Group-3" transform="translate(0.000000, 0.239447)">
                        <mask id="mask-2" fill="white">
                            <use xlink:href="#path-1"></use>
                        </mask>
                        <g id="Clip-2"></g>
                        <path d="M18.0627061,3.69926671 C18.7879061,4.6148667 18.8042394,5.56733335 18.7473061,6.07786668 C18.6399728,7.26086667 17.8783728,7.99633333 17.8788395,7.99633333 L14.0339729,11.8398 L12.640973,10.4468 L12.6405063,10.4472666 L10.8606397,8.66739999 L10.8583064,8.67019999 L9.51290641,7.3248 L9.48770641,7.30006667 C8.93143976,6.77833334 8.09377312,6.67613334 7.47450648,7.03873334 C6.91917316,7.3458 6.57430651,7.92213333 6.57430651,8.54233332 L6.57430651,11.6377333 L6.57430651,14.5767999 L6.57057317,14.5805333 L6.57057317,18.2872666 C6.57057317,18.9079332 6.91543983,19.4847332 7.44743981,19.7787332 C7.70737313,19.9313332 7.99903979,20.0059999 8.29163978,20.0059999 C8.72283977,20.0059999 9.15590642,19.8435999 9.48817307,19.5309332 L12.640973,16.3790666 L12.640973,16.3795332 L14.0335063,14.9865333 L17.8396395,18.7931332 L17.8788395,18.8299999 C17.8863061,18.8374665 18.6404394,19.5705999 18.7496394,20.7722665 C18.8042394,21.2589999 18.7879061,22.2114665 18.0627061,23.1275332 C17.0897061,24.3562665 15.7368395,24.3735332 15.6575062,24.3735332 L15.6551729,24.3735332 L2.22543999,24.3730665 L2.22543999,2.45308841 L15.6425729,2.45326672 C15.6976395,2.45093339 17.0757061,2.45326672 18.0627061,3.69926671 Z M12.0137735,12.9667997 L12.4599068,13.4133997 L12.0133068,13.8599997 L12.0133068,13.859533 L8.79610695,17.0771997 L8.79610695,14.8502664 L8.79937362,14.8544664 L8.79937362,12.6671997 L8.79937362,11.637733 L8.79937362,9.75893297 L10.5405069,11.4995997 L10.5433069,11.4967997 L12.0133068,12.9672663 L12.0137735,12.9667997 Z M15.6155059,0.228199995 L2.22497322,0.227733328 L2.22543989,0.227266661 L-9.33333294e-05,0.227266661 L-9.33333294e-05,26.6000002 L2.22543989,26.6000002 L2.22497322,26.5986002 L15.6155059,26.5986002 L15.6332392,26.5986002 C16.0009725,26.5986002 18.2209057,26.5122669 19.8071057,24.5088669 C20.7119723,23.3669335 21.1217056,21.9515335 20.9635056,20.5478002 C20.7871056,18.5999335 19.6255723,17.4183335 19.3997057,17.2055335 L15.6071059,13.4129334 L19.3997057,9.62080008 C19.6255723,9.40846674 20.7871056,8.22780006 20.9611723,6.30233338 C21.1217056,4.87480003 20.7115056,3.45940002 19.8071057,2.31793335 C18.1919724,0.278133328 15.9109059,0.232866661 15.6155059,0.228199995 Z" id="Fill-1" fill="#4E5454" mask="url(#mask-2)"></path>
                    </g>
                    <polygon id="Fill-4" fill="#000000" points="14.0267868 15.2319066 12.4601867 16.7989733 10.8809867 15.2202399 12.4480534 13.6531732"></polygon>
                </g>
            </g>
        </g>
    </g>
</svg>