<svg xmlns="http://www.w3.org/2000/svg" width="38.962" height="35.602" viewBox="0 0 38.962 35.602">
  <g id="_17270370861552994182" data-name="17270370861552994182" transform="translate(-26.16 35.12)">
    <g id="Black" transform="translate(27.16 -34.12)">
      <g id="Group_122" data-name="Group 122">
        <path id="Path_406" data-name="Path 406" d="M6.5,22.7l2.52,1.68,2.52-1.68V20.18L9.02,18.5,6.5,20.18Z" transform="translate(1.9 9.222)" fill="none" stroke="#333" stroke-linecap="round" stroke-linejoin="round" stroke-miterlimit="10" stroke-width="2"/>
        <path id="Path_407" data-name="Path 407" d="M17.5,22.7l2.52,1.68,2.52-1.68V20.18L20.02,18.5,17.5,20.18Z" transform="translate(9.382 9.222)" fill="none" stroke="#333" stroke-linecap="round" stroke-linejoin="round" stroke-miterlimit="10" stroke-width="2"/>
        <path id="Path_408" data-name="Path 408" d="M2.5,15.9v8.4H24.341V7.5h-6.72" transform="translate(-0.82 1.741)" fill="none" stroke="#333" stroke-linecap="round" stroke-linejoin="round" stroke-miterlimit="10" stroke-width="2"/>
        <path id="Path_409" data-name="Path 409" d="M27.261,26.3h1.68v-6.72L23.06,9.5H15.5" transform="translate(8.021 3.101)" fill="none" stroke="#333" stroke-linecap="round" stroke-linejoin="round" stroke-miterlimit="10" stroke-width="2"/>
        <path id="Path_410" data-name="Path 410" d="M23.661,11.5H17.5v5.04h9.012" transform="translate(9.382 4.461)" fill="none" stroke="#333" stroke-linecap="round" stroke-linejoin="round" stroke-miterlimit="10" stroke-width="2"/>
        <line id="Line_22" data-name="Line 22" x1="13.441" transform="translate(23.521 26.041)" fill="none" stroke="#333" stroke-linecap="round" stroke-linejoin="round" stroke-miterlimit="10" stroke-width="2"/>
        <line id="Line_23" data-name="Line 23" x1="6.72" transform="translate(16.801 29.402)" fill="none" stroke="#333" stroke-linecap="round" stroke-linejoin="round" stroke-miterlimit="10" stroke-width="2"/>
        <line id="Line_24" data-name="Line 24" x1="3.36" transform="translate(1.68 29.402)" fill="none" stroke="#333" stroke-linecap="round" stroke-linejoin="round" stroke-miterlimit="10" stroke-width="2"/>
        <g id="Group_121" data-name="Group 121">
          <path id="Path_411" data-name="Path 411" d="M14.941,13.341l-6.72,3.78L1.5,13.341V5.78L8.22,2l6.72,3.78Z" transform="translate(-1.5 -2)" fill="none" stroke="#333" stroke-linecap="round" stroke-linejoin="round" stroke-miterlimit="10" stroke-width="2"/>
          <path id="Path_412" data-name="Path 412" d="M5.5,4.5V9.54H8.86" transform="translate(1.22 -0.3)" fill="none" stroke="#009393" stroke-linecap="round" stroke-linejoin="round" stroke-miterlimit="10" stroke-width="2"/>
        </g>
      </g>
    </g>
  </g>
</svg>
