<?xml version="1.0" standalone="no"?>
<!DOCTYPE svg PUBLIC "-//W3C//DTD SVG 1.1//EN" "http://www.w3.org/Graphics/SVG/1.1/DTD/svg11.dtd" >
<svg xmlns="http://www.w3.org/2000/svg">
<metadata>Generated by IcoMoon</metadata>
<defs>
<font id="blowhorn-fonts" horiz-adv-x="1024">
<font-face units-per-em="1024" ascent="960" descent="-64" />
<missing-glyph horiz-adv-x="1024" />
<glyph unicode="&#x20;" d="" horiz-adv-x="512" />
<glyph unicode="&#x61;" d="M168 198c24-24 46-44 70-62 60-44 128-72 202-84 88-14 174-4 256 34 150 66 242 182 276 342 22 108 6 210-46 308-60 112-154 186-276 224-40 14-82 20-126 20-134 2-250-46-344-142-68-68-110-150-128-246-16-88-6-174 28-258 6-16 2-28-10-34-14-6-26 0-30 12-14 30-24 60-30 92-30 166 8 312 116 440 72 86 166 142 274 166 58 14 116 18 174 10 84-10 162-38 234-88 78-54 134-124 174-212 26-60 40-124 42-192 2-140-44-264-142-368-72-76-160-126-262-148-172-36-324 8-456 124-8 6-16 14-24 24-10 10-10 22 0 34 0 2 2 6 2 8 4 16 8 32 12 48 10 40 18 80 28 120 2 2 4 6 6 10 138 136 274 274 412 412 4 4 10 8 16 10 12 6 24 8 36 0 36-26 70-52 96-88 8-10 14-22 16-36s-4-26-12-36c-6-4-10-8-14-12-72-72-142-142-214-214-62-62-124-122-186-184-2-4-8-6-12-8-40-10-82-20-122-28-8-2-16 0-24 0-4 0-6 2-12 2zM324 264c104 106 210 212 316 316-34 34-68 68-102 102-106-104-210-210-316-316 34-34 68-68 102-102zM660 602c20 20 40 40 60 58 12 12 12 22 0 34-22 22-46 46-68 70-10 10-22 10-32 0-6-8-14-14-22-22-12-12-26-26-38-38 34-34 66-68 100-102zM184 224c38 10 74 18 110 26-28 28-56 56-84 84-8-36-18-72-26-110z" />
<glyph unicode="&#x64;" d="M798 604c0-6-2-10-6-14l-266-266c-4-4-10-6-14-6s-10 2-14 6l-266 266c-4 4-6 8-6 14 0 4 2 8 6 12l30 30c2 2 8 4 12 4 6 0 10-2 14-4l224-226 224 226c4 2 8 4 14 4 4 0 10-2 12-4l30-30c4-4 6-8 6-12z" />
<glyph unicode="&#x65;" d="M600 846c60-58 120-118 180-178-180-180-362-360-540-540-60 60-120 120-180 178 180 180 360 360 540 540zM782 1030c20 18 40 38 58 58 60-60 120-120 180-180-18-20-38-38-58-58-60 60-120 120-180 180zM662 908c20 20 40 40 58 58 60-58 120-118 180-178-20-20-40-38-58-58-60 60-120 120-180 178zM166 68c-54 0-110 0-166 0 0 56 0 112 0 166 54-56 110-112 166-166z" />
<glyph unicode="&#x66;" d="M584 706h148l-18-162h-130v-470h-194v470h-98v162h98v98c0 70 16 122 48 158 34 36 88 52 162 52h130v-162h-80c-16 0-28 0-36-4-10-2-16-6-20-12-4-8-6-14-8-20 0-6-2-16-2-28z" />
<glyph unicode="&#x67;" d="M102 740c0 38 8 74 26 104s36 52 58 66c20 14 44 26 70 36 26 8 46 14 58 14 12 2 20 2 26 2 0 0 236 0 236 0s0-4 0-4c0-14-28-26-80-36-20 0-32-2-40-6 28-14 46-34 56-58s14-58 14-98c0-70-22-124-70-162-26-26-38-44-38-56s16-34 50-64c72-62 108-124 108-184 0-94-40-160-120-198-46-22-96-34-152-34 0 0-4 0-4 0s-6 2-6 2c0-2-2-2-4-2-16 0-34 2-54 4-20 4-46 12-78 22-30 10-56 30-76 58-18 28-28 64-28 106 0 40 10 76 32 104s50 46 86 58c34 10 64 18 90 22 24 4 48 6 72 6 0 0 2 0 2 0-12 16-20 32-24 48-6 18-8 30-8 40 0 0 2 14 2 14s-16 0-16 0c-42 0-80 12-112 32-50 30-76 84-76 164zM482 276c-4 36-18 64-44 86-28 22-62 34-106 34 0 0-16 0-16 0-44-2-84-18-118-48-30-28-46-60-42-96 2-36 20-62 54-82s74-28 122-24c46 2 84 16 112 40s40 54 38 90zM420 788c-20 74-62 112-126 112-8 0-14-2-20-2-26-10-46-30-58-64s-12-70-4-110c10-34 26-64 50-86 22-22 46-34 72-34 8 0 14 0 18 2 28 8 50 30 64 66 16 36 16 76 4 116zM818 610c0 0 152 0 152 0s0-96 0-96c0 0-152 0-152 0s0-154 0-154c0 0-98 0-98 0s0 154 0 154c0 0-152 0-152 0s0 96 0 96c0 0 152 0 152 0s0 154 0 154c0 0 98 0 98 0s0-154 0-154z" />
<glyph unicode="&#x6c;" d="M272 666v-566h-188v566zM284 842c0-28-8-52-28-70s-46-28-78-28v0c-32 0-58 10-76 28-20 18-28 42-28 70s8 52 28 70c20 18 46 28 78 28s56-10 76-28c18-18 28-42 28-70zM950 426v-326h-188v304c0 40-6 70-22 94-16 22-40 34-72 34-24 0-44-8-60-20-18-14-30-30-38-50-4-10-6-26-6-46v-316h-188c2 152 2 276 2 370s0 152 0 170l-2 26h188v-82c8 12 14 24 22 32 8 10 20 20 34 30 12 10 30 20 48 26 20 6 42 8 66 8 66 0 118-22 158-64 40-44 58-108 58-190z" />
<glyph unicode="&#x6f;" d="M646 208c12-14 22-26 32-40-2 0-2-2-4-2-60-44-124-72-198-80s-144 2-212 32c-132 58-214 158-246 296-24 98-14 194 26 286 36 82 98 144 176 188 52 30 108 48 168 56 64 8 128-2 188-28 36-14 68-32 98-54 2 0 2-2 4-2-10-14-20-28-30-40-16 10-32 20-48 28-42 22-84 38-130 44-30 4-60 4-90 0-66-12-126-36-180-78-74-54-118-126-136-216-12-70-12-140 12-208 48-134 142-216 280-248 42-8 86-10 128-4 48 8 90 26 130 48 12 8 22 14 32 22zM826 308c-12 12-22 24-34 36 50 50 100 102 150 154h-518v50h510c0 0 0 0 0 0-48 48-96 96-146 144 14 12 26 22 38 34 70-68 140-136 210-206-70-70-140-140-210-212z" />
<glyph unicode="&#x74;" d="M984 804c-26-36-58-70-98-100 0 0 0-24 0-24 0-88-20-174-60-256-42-82-106-152-192-208s-184-84-296-84c-110 0-208 28-298 86 10-2 26-2 48-2 90 0 170 26 240 80-42 2-80 16-112 40-34 24-56 56-68 96 6-2 18-4 34-4 18 0 36 2 52 6-46 10-82 32-112 68-28 36-42 76-42 122 0 0 0 2 0 2 24-12 54-22 86-24-58 40-86 94-86 162 0 32 8 64 26 96 106-128 238-196 400-200-4 12-6 26-6 42 0 54 18 100 56 136 38 38 84 56 138 56 56 0 102-18 140-58 40 8 82 22 122 44-14-44-42-80-84-106 38 6 76 16 112 30z" />
<glyph unicode="&#x76;" d="M922 982l-562-460-256 190-104-112 316-368 56-66 58 64 596 642z" />
<glyph unicode="&#xe600;" d="M699.523 740.872c37.926-16.856 113.778-126.42-109.564-151.704 286.551 0 223.342 210.7 113.778 227.556-181.202 33.712-172.774-214.914-172.774-214.914 25.284 147.49 105.35 164.346 168.56 139.062zM286.551 879.934c-210.7 8.428-269.695-286.551 147.49-290.765-294.979 37.926-248.626 219.128-143.276 219.128s176.988-67.424 198.058-206.486c0 0 8.428 269.695-202.272 278.123zM526.749-5.004l328.691 101.136v164.346l-328.691-4.214v-261.267zM155.918 96.132l328.691-101.136v261.267l-328.691 4.214v-164.346zM526.749 559.671v-261.267l328.691-4.214v164.346l-328.691 101.136zM155.918 294.189l328.691 4.214v261.267l-328.691-101.136v-164.346z" />
<glyph unicode="&#xe601;" d="M723.026 590.951l-57.863 57.863-159.971-159.971-159.971 159.971-57.863-57.863 159.971-159.971-159.971-159.971 57.863-57.863 159.971 159.971 159.971-159.971 57.863 57.863-159.971 159.971z" />
</font></defs></svg>