<?xml version="1.0" encoding="utf-8"?>
<!-- Generator: Adobe Illustrator 17.0.0, SVG Export Plug-In . SVG Version: 6.00 Build 0)  -->
<!DOCTYPE svg PUBLIC "-//W3C//DTD SVG 1.1//EN" "http://www.w3.org/Graphics/SVG/1.1/DTD/svg11.dtd">
<svg version="1.1" id="Layer_1" xmlns="http://www.w3.org/2000/svg" xmlns:xlink="http://www.w3.org/1999/xlink" x="0px" y="0px"
	 width="112.18px" height="89.315px" viewBox="0 0 112.18 89.315" enable-background="new 0 0 112.18 89.315" xml:space="preserve">
<polygon fill="#FFFFFF" points="100.744,0 39.364,50.409 11.308,29.729 0,41.906 34.644,82.208 40.753,89.315 47.125,82.438 
	112.18,12.137 "/>
</svg>
