[
  {
    "model":"catalogue.productimage",
    "pk":5,
    "fields":{
      "product_id":5,
      "original":"BulandFront.png",
      "caption":"Ceat",
      "display_order":5,
      "date_created": "2020-03-31T12:45:16.600Z"
    }
  }, {
    "model":"catalogue.productimage",
    "pk":6,
    "fields":{
      "product_id":6,
      "original":"BulandRear.png",
      "caption":"Ceat",
      "display_order":6,
      "date_created": "2020-03-31T12:45:16.600Z"
    }
  }, {
    "model":"catalogue.productimage",
    "pk":7,
    "fields":{
      "product_id":7,
      "original":"BulandFront.png",
      "caption":"Ceat",
      "display_order":7,
      "date_created": "2020-03-31T12:45:16.600Z"
    }
  }, {
    "model":"catalogue.productimage",
    "pk":8,
    "fields":{
      "product_id":8,
      "original":"BulandFront.png",
      "caption":"Ceat",
      "display_order":8,
      "date_created": "2020-03-31T12:45:16.600Z"
    }
  }, {
    "model":"catalogue.productimage",
    "pk":9,
    "fields":{
      "product_id":9,
      "original":"BulandRear.png",
      "caption":"Ceat",
      "display_order":9,
      "date_created": "2020-03-31T12:45:16.600Z"
    }
  }, {
    "model":"catalogue.productimage",
    "pk":10,
    "fields":{
      "product_id":10,
      "original":"BulandFront.png",
      "caption":"Ceat",
      "display_order":10,
      "date_created": "2020-03-31T12:45:16.600Z"
    }
  }, {
    "model":"catalogue.productimage",
    "pk":11,
    "fields":{
      "product_id":11,
      "original":"BulandRear.png",
      "caption":"Ceat",
      "display_order":11,
      "date_created": "2020-03-31T12:45:16.600Z"
    }
  }, {
    "model":"catalogue.productimage",
    "pk":12,
    "fields":{
      "product_id":12,
      "original":"BulandRear.png",
      "caption":"Ceat",
      "display_order":12,
      "date_created": "2020-03-31T12:45:16.600Z"
    }
  }, {
    "model":"catalogue.productimage",
    "pk":13,
    "fields":{
      "product_id":13,
      "original":"BulandFront.png",
      "caption":"Ceat",
      "display_order":13,
      "date_created": "2020-03-31T12:45:16.600Z"
    }
  }, {
    "model":"catalogue.productimage",
    "pk":14,
    "fields":{
      "product_id":14,
      "original":"LMRadial.png",
      "caption":"Ceat",
      "display_order":14,
      "date_created": "2020-03-31T12:45:16.600Z"
    }
  }, {
    "model":"catalogue.productimage",
    "pk":15,
    "fields":{
      "product_id":15,
      "original":"LMRadial.png",
      "caption":"Ceat",
      "display_order":15,
      "date_created": "2020-03-31T12:45:16.600Z"
    }
  }, {
    "model":"catalogue.productimage",
    "pk":16,
    "fields":{
      "product_id":16,
      "original":"LMRadial.png",
      "caption":"Ceat",
      "display_order":16,
      "date_created": "2020-03-31T12:45:16.600Z"
    }
  }, {
    "model":"catalogue.productimage",
    "pk":17,
    "fields":{
      "product_id":17,
      "original":"LMRadial.png",
      "caption":"Ceat",
      "display_order":17,
      "date_created": "2020-03-31T12:45:16.600Z"
    }
  }, {
    "model":"catalogue.productimage",
    "pk":18,
    "fields":{
      "product_id":18,
      "original":"LMRadial.png",
      "caption":"Ceat",
      "display_order":18,
      "date_created": "2020-03-31T12:45:16.600Z"
    }
  }, {
    "model":"catalogue.productimage",
    "pk":19,
    "fields":{
      "product_id":19,
      "original":"LMRadial.png",
      "caption":"Ceat",
      "display_order":19,
      "date_created": "2020-03-31T12:45:16.600Z"
    }
  }
]
