<?xml version="1.0" encoding="UTF-8"?>
<svg width="50px" height="50px" viewBox="0 0 50 50" version="1.1" xmlns="http://www.w3.org/2000/svg" xmlns:xlink="http://www.w3.org/1999/xlink">
    <!-- Generator: Sketch 55.1 (78136) - https://sketchapp.com -->
    <title>chat</title>
    <desc>Created with Sketch.</desc>
    <g id="Page-1" stroke="none" stroke-width="1" fill="none" fill-rule="evenodd">
        <g id="home-page-on.-demand" transform="translate(-467.000000, -2553.000000)" fill-rule="nonzero">
            <g id="chat" transform="translate(467.000000, 2553.000000)">
                <ellipse id="Oval" fill="#0068C9" cx="25.0531915" cy="25" rx="24.9468085" ry="25"></ellipse>
                <g id="messenger" transform="translate(12.579787, 15.625000)" fill="#FFFFFF">
                    <path d="M22.0366074,0 L2.91020113,0 C1.59503657,0 0.519205452,1.078125 0.519205452,2.39609375 L0.519205452,23.9601563 L5.30041722,19.1671875 L22.0358278,19.1671875 C23.3517719,19.1671875 24.4268239,18.0898438 24.4268239,16.771875 L24.4268239,2.396875 C24.4276031,1.078125 23.3517719,0 22.0366074,0 Z" id="Shape"></path>
                </g>
                <path d="M29.9692719,25.3140625 C29.9661536,25.321875 29.672249,26.1945312 28.9526895,27.0390625 C28.0366739,28.1140625 26.8672922,28.6601562 25.4772872,28.6601562 C24.0771476,28.6601562 22.8695662,28.1078125 21.8896243,27.0195312 C21.1217304,26.1664062 20.7826097,25.2882812 20.7794914,25.2820312 L19.257736,25.8515625 C19.274887,25.896875 19.6857297,26.9828125 20.6391656,28.0601562 C21.9286037,29.5171875 23.6015991,30.2882812 25.4772872,30.2882812 C27.3623305,30.2882812 29.0064811,29.5117187 30.2335522,28.0429687 C31.1394332,26.9570312 31.4988231,25.8632812 31.5144149,25.8171875 L29.9692719,25.3140625 Z" id="Shape" fill="#0068C9"></path>
                <ellipse id="Oval" fill="#0068C9" cx="21.8054289" cy="21.0132813" rx="1.29957281" ry="1.30234375"></ellipse>
                <ellipse id="Oval" fill="#0068C9" cx="28.9534691" cy="21.0132813" rx="1.29957281" ry="1.30234375"></ellipse>
            </g>
        </g>
    </g>
</svg>