[
{
  "model": "vehicle.bodytype",
  "pk": 1,
  "fields": {
    "body_type": "Container"
  }
},
{
  "model": "vehicle.bodytype",
  "pk": 2,
  "fields": {
    "body_type": "Tarpaul"
  }
},
{
  "model": "vehicle.bodytype",
  "pk": 3,
  "fields": {
    "body_type": "Tarpaul + Gate"
  }
},
{
  "model": "vehicle.bodytype",
  "pk": 4,
  "fields": {
    "body_type": "Open-Top"
  }
},
{
  "model": "vehicle.bodytype",
  "pk": 5,
  "fields": {
    "body_type": "Not Specified"
  }
}
]
