<svg width="395" height="395" viewBox="0 0 395 395" fill="none" xmlns="http://www.w3.org/2000/svg">
<path d="M70.2641 244.156L68.3078 239.666C77.7469 235.626 87.5087 231.44 100.009 231.44C112.51 231.44 122.272 235.626 131.711 239.666L129.755 244.156C120.364 240.136 111.483 236.331 99.98 236.331C88.4771 236.331 79.664 240.126 70.2641 244.156Z" fill="#33CCE5"/>
<path d="M-52.6984 244.156L-54.6547 239.666C-45.2156 235.626 -35.4635 231.44 -22.9531 231.44C-10.4427 231.44 -0.690624 235.626 8.74843 239.666L6.79215 244.156C-2.598 240.136 -11.4795 236.331 -22.9825 236.331C-34.4854 236.331 -43.3082 240.126 -52.6984 244.156Z" fill="#33CCE5"/>
<path d="M161.524 228.31C149.014 228.31 139.252 224.133 129.823 220.093C120.394 216.054 111.541 212.268 100.039 212.268C88.5356 212.268 79.6638 216.073 70.2639 220.093C60.864 224.113 51.063 228.31 38.5623 228.31C26.0617 228.31 16.2901 224.133 6.85104 220.093C-2.58801 216.054 -11.4206 212.268 -22.9236 212.268C-34.4265 212.268 -43.308 216.073 -52.6982 220.093C-62.0883 224.113 -71.8991 228.31 -84.4095 228.31C-96.9199 228.31 -106.672 224.133 -116.111 220.093C-125.55 216.054 -134.383 212.268 -145.886 212.268C-157.389 212.268 -166.27 216.073 -175.67 220.093C-185.07 224.113 -194.861 228.31 -207.372 228.31C-213.005 228.289 -218.605 227.455 -224 225.835L-222.621 221.14C-217.674 222.631 -212.538 223.398 -207.372 223.419C-195.869 223.419 -186.987 219.624 -177.587 215.594C-168.187 211.564 -158.396 207.377 -145.886 207.377C-133.375 207.377 -123.623 211.554 -114.184 215.594C-104.745 219.634 -95.9124 223.419 -84.4095 223.419C-72.9066 223.419 -64.0251 219.624 -54.6251 215.594C-45.2252 211.564 -35.434 207.377 -22.9236 207.377C-10.4131 207.377 -0.661072 211.554 8.77798 215.594C18.217 219.634 27.0496 223.419 38.5623 223.419C50.0751 223.419 58.937 219.624 68.337 215.594C77.7369 211.564 87.5379 207.377 100.039 207.377C112.539 207.377 122.301 211.554 131.74 215.594C141.179 219.634 150.022 223.419 161.524 223.419C166.691 223.398 171.827 222.631 176.774 221.14L178.153 225.835C172.758 227.455 167.157 228.289 161.524 228.31Z" fill="#33CCE5"/>
<path d="M161.524 204.248C149.014 204.248 139.252 200.071 129.823 196.031C120.394 191.992 111.541 188.206 100.039 188.206C88.5356 188.206 79.6638 192.001 70.2639 196.031C60.864 200.061 51.063 204.248 38.5623 204.248C26.0617 204.248 16.2901 200.071 6.85104 196.031C-2.58801 191.992 -11.4206 188.206 -22.9236 188.206C-34.4265 188.206 -43.308 192.001 -52.6982 196.031C-62.0883 200.061 -71.8991 204.248 -84.4095 204.248C-96.9199 204.248 -106.672 200.071 -116.111 196.031C-125.55 191.992 -134.383 188.206 -145.886 188.206C-157.389 188.206 -166.27 192.001 -175.67 196.031C-185.07 200.061 -194.861 204.248 -207.372 204.248C-213.005 204.228 -218.606 203.391 -224 201.763L-222.621 197.088C-217.674 198.578 -212.538 199.346 -207.372 199.367C-195.869 199.367 -186.987 195.562 -177.587 191.542C-168.187 187.521 -158.396 183.325 -145.886 183.325C-133.375 183.325 -123.623 187.502 -114.184 191.542C-104.745 195.581 -95.9124 199.367 -84.4095 199.367C-72.9066 199.367 -64.0251 195.562 -54.6251 191.542C-45.2252 187.521 -35.434 183.325 -22.9236 183.325C-10.4131 183.325 -0.661072 187.502 8.77798 191.542C18.217 195.581 27.0496 199.367 38.5623 199.367C50.0751 199.367 58.937 195.562 68.337 191.542C77.7369 187.521 87.5379 183.325 100.039 183.325C112.539 183.325 122.301 187.502 131.74 191.542C141.179 195.581 150.022 199.367 161.524 199.367C166.691 199.346 171.827 198.578 176.774 197.088L178.153 201.773C172.759 203.397 167.158 204.23 161.524 204.248Z" fill="#33CCE5"/>
<path d="M161.524 180.185C149.014 180.185 139.252 176.008 129.823 171.959C120.394 167.909 111.541 164.134 100.039 164.134C88.5356 164.134 79.6638 167.939 70.2639 171.959C60.864 175.979 51.063 180.185 38.5623 180.185C26.0617 180.185 16.2901 176.008 6.85104 171.959C-2.58801 167.909 -11.4206 164.134 -22.9236 164.134C-34.4265 164.134 -43.308 167.939 -52.6982 171.959C-62.0883 175.979 -71.8991 180.185 -84.4095 180.185C-96.9199 180.185 -106.672 176.008 -116.111 171.959C-125.55 167.909 -134.383 164.134 -145.886 164.134C-157.389 164.134 -166.27 167.939 -175.67 171.959C-185.07 175.979 -194.861 180.185 -207.372 180.185C-213.005 180.165 -218.606 179.328 -224 177.701L-222.621 173.006C-217.675 174.499 -212.538 175.27 -207.372 175.294C-195.869 175.294 -186.987 171.489 -177.587 167.469C-168.187 163.449 -158.396 159.243 -145.886 159.243C-133.375 159.243 -123.623 163.43 -114.184 167.469C-104.745 171.509 -95.9124 175.294 -84.4095 175.294C-72.9066 175.294 -64.0251 171.489 -54.6251 167.469C-45.2252 163.449 -35.434 159.243 -22.9236 159.243C-10.4131 159.243 -0.661072 163.43 8.77798 167.469C18.217 171.509 27.0496 175.294 38.5623 175.294C50.0751 175.294 58.937 171.489 68.337 167.469C77.7369 163.449 87.5379 159.243 100.039 159.243C112.539 159.243 122.301 163.43 131.74 167.469C141.179 171.509 150.022 175.294 161.524 175.294C166.691 175.27 171.827 174.499 176.774 173.006L178.153 177.701C172.759 179.328 167.158 180.165 161.524 180.185Z" fill="#33CCE5"/>
<path d="M161.524 156.113C149.014 156.113 139.252 151.937 129.823 147.897C120.394 143.857 111.541 140.072 100.039 140.072C88.5356 140.072 79.6638 143.877 70.2639 147.897C60.864 151.917 51.063 156.113 38.5623 156.113C26.0617 156.113 16.2901 151.937 6.85104 147.897C-2.58801 143.857 -11.4206 140.072 -22.9236 140.072C-34.4265 140.072 -43.308 143.877 -52.6982 147.897C-62.0883 151.917 -71.8991 156.113 -84.4095 156.113C-96.9199 156.113 -106.672 151.937 -116.111 147.897C-125.55 143.857 -134.383 140.072 -145.886 140.072C-157.389 140.072 -166.27 143.877 -175.67 147.897C-185.07 151.917 -194.861 156.113 -207.372 156.113C-213.005 156.092 -218.605 155.259 -224 153.639L-222.621 148.944C-217.674 150.434 -212.538 151.202 -207.372 151.223C-195.869 151.223 -186.987 147.427 -177.587 143.398C-168.187 139.368 -158.396 135.181 -145.886 135.181C-133.375 135.181 -123.623 139.358 -114.184 143.398C-104.745 147.437 -95.9124 151.223 -84.4095 151.223C-72.9066 151.223 -64.0251 147.427 -54.6251 143.398C-45.2252 139.368 -35.434 135.181 -22.9236 135.181C-10.4131 135.181 -0.661072 139.358 8.77798 143.398C18.217 147.437 27.0496 151.223 38.5623 151.223C50.0751 151.223 58.937 147.427 68.337 143.398C77.7369 139.368 87.5379 135.181 100.039 135.181C112.539 135.181 122.301 139.358 131.74 143.398C141.179 147.437 150.022 151.223 161.524 151.223C166.691 151.202 171.827 150.434 176.774 148.944L178.153 153.639C172.758 155.259 167.157 156.092 161.524 156.113Z" fill="#33CCE5"/>
<path d="M161.524 132.051C149.014 132.051 139.252 127.874 129.823 123.834C120.394 119.795 111.541 116.009 100.039 116.009C88.5356 116.009 79.6638 119.805 70.2639 123.834C60.864 127.864 51.063 132.051 38.5623 132.051C26.0617 132.051 16.2901 127.874 6.85104 123.834C-2.58801 119.795 -11.4206 116.009 -22.9236 116.009C-34.4265 116.009 -43.308 119.805 -52.6982 123.834C-62.0883 127.864 -71.8991 132.051 -84.4095 132.051C-96.9199 132.051 -106.672 127.874 -116.111 123.834C-125.55 119.795 -134.383 116.009 -145.886 116.009C-157.389 116.009 -166.27 119.805 -175.67 123.834C-185.07 127.864 -194.861 132.051 -207.372 132.051C-213.005 132.031 -218.606 131.194 -224 129.566L-222.621 124.881C-217.674 126.372 -212.538 127.139 -207.372 127.16C-195.869 127.16 -186.987 123.355 -177.587 119.335C-168.187 115.315 -158.396 111.119 -145.886 111.119C-133.375 111.119 -123.623 115.295 -114.184 119.335C-104.745 123.375 -95.9124 127.16 -84.4095 127.16C-72.9066 127.16 -64.0251 123.365 -54.6251 119.335C-45.2252 115.305 -35.434 111.119 -22.9236 111.119C-10.4131 111.119 -0.661072 115.295 8.77798 119.335C18.217 123.375 27.0496 127.16 38.5623 127.16C50.0751 127.16 58.937 123.355 68.337 119.335C77.7369 115.315 87.5379 111.119 100.039 111.119C112.539 111.119 122.301 115.295 131.74 119.335C141.179 123.375 150.022 127.16 161.524 127.16C166.691 127.139 171.827 126.372 176.774 124.881L178.153 129.566C172.759 131.194 167.158 132.031 161.524 132.051Z" fill="#33CCE5"/>
<path d="M161.524 107.989C149.014 107.989 139.252 103.812 129.823 99.7625C120.394 95.7129 111.541 91.9373 100.039 91.9373C88.5356 91.9373 79.6638 95.7325 70.2639 99.7625C60.864 103.792 51.063 107.989 38.5623 107.989C26.0617 107.989 16.2901 103.812 6.85104 99.7625C-2.58801 95.7129 -11.4206 91.9373 -22.9236 91.9373C-34.4265 91.9373 -43.308 95.7325 -52.6982 99.7625C-62.0883 103.792 -71.8991 107.989 -84.4095 107.989C-96.9199 107.989 -106.672 103.812 -116.111 99.7625C-125.55 95.7129 -134.383 91.9373 -145.886 91.9373C-157.389 91.9373 -166.27 95.7325 -175.67 99.7625C-185.07 103.792 -194.861 107.989 -207.372 107.989C-213.005 107.969 -218.606 107.132 -224 105.504L-222.621 100.809C-217.675 102.303 -212.538 103.074 -207.372 103.098C-195.869 103.098 -186.987 99.2929 -177.587 95.2728C-168.187 91.2526 -158.396 87.0564 -145.886 87.0564C-133.375 87.0564 -123.623 91.2331 -114.184 95.2728C-104.745 99.3125 -95.9124 103.098 -84.4095 103.098C-72.9066 103.098 -64.0251 99.2929 -54.6251 95.2728C-45.2252 91.2526 -35.434 87.0564 -22.9236 87.0564C-10.4131 87.0564 -0.661072 91.2331 8.77798 95.2728C18.217 99.3125 27.0496 103.098 38.5623 103.098C50.0751 103.098 58.937 99.2929 68.337 95.2728C77.7369 91.2526 87.5379 87.0564 100.039 87.0564C112.539 87.0564 122.301 91.2331 131.74 95.2728C141.179 99.3125 150.022 103.098 161.524 103.098C166.691 103.074 171.827 102.303 176.774 100.809L178.153 105.504C172.759 107.131 167.158 107.967 161.524 107.989Z" fill="#33CCE5"/>
<path d="M161.524 83.9166C149.014 83.9166 139.252 79.7399 129.823 75.7002C120.394 71.6605 111.541 67.8751 100.039 67.8751C88.5356 67.8751 79.6638 71.6801 70.2639 75.7002C60.864 79.7204 51.063 83.9166 38.5623 83.9166C26.0617 83.9166 16.2901 79.7399 6.85104 75.7002C-2.58801 71.6605 -11.4206 67.8751 -22.9236 67.8751C-34.4265 67.8751 -43.308 71.6801 -52.6982 75.7002C-62.0883 79.7204 -71.8991 83.9166 -84.4095 83.9166C-96.9199 83.9166 -106.672 79.7399 -116.111 75.7002C-125.55 71.6605 -134.383 67.8751 -145.886 67.8751C-157.389 67.8751 -166.27 71.6801 -175.67 75.7002C-185.07 79.7204 -194.861 83.9166 -207.372 83.9166C-213.005 83.8955 -218.605 83.062 -224 81.4419L-222.621 76.7468C-217.674 78.2376 -212.538 79.0052 -207.372 79.0259C-195.869 79.0259 -186.987 75.2307 -177.587 71.2008C-168.187 67.1708 -158.396 62.9746 -145.886 62.9746C-133.375 62.9746 -123.623 67.1513 -114.184 71.2008C-104.745 75.2503 -95.9124 79.0259 -84.4095 79.0259C-72.9066 79.0259 -64.0251 75.2307 -54.6251 71.2008C-45.2252 67.1708 -35.434 62.9746 -22.9236 62.9746C-10.4131 62.9746 -0.661072 67.1513 8.77798 71.2008C18.217 75.2503 27.0496 79.0259 38.5623 79.0259C50.0751 79.0259 58.937 75.2307 68.337 71.2008C77.7369 67.1708 87.5379 62.9746 100.039 62.9746C112.539 62.9746 122.301 67.1513 131.74 71.2008C141.179 75.2503 150.022 79.0259 161.524 79.0259C166.689 79.0147 171.826 78.257 176.774 76.7762L178.153 81.4713C172.756 83.0799 167.156 83.9035 161.524 83.9166Z" fill="#33CCE5"/>
<path d="M161.524 59.8543C149.014 59.8543 139.252 55.6777 129.823 51.6379C120.394 47.5982 111.541 43.8128 100.039 43.8128C88.5356 43.8128 79.6638 47.608 70.2639 51.6379C60.864 55.6679 51.063 59.8543 38.5623 59.8543C26.0617 59.8543 16.2901 55.6777 6.85104 51.6379C-2.58801 47.5982 -11.4206 43.8128 -22.9236 43.8128C-34.4265 43.8128 -43.308 47.608 -52.6982 51.6379C-62.0883 55.6679 -71.8991 59.8543 -84.4095 59.8543C-96.9199 59.8543 -106.672 55.6777 -116.111 51.6379C-125.55 47.5982 -134.383 43.8128 -145.886 43.8128C-157.389 43.8128 -166.27 47.608 -175.67 51.6379C-185.07 55.6679 -194.861 59.8543 -207.372 59.8543C-213.005 59.8332 -218.605 58.9997 -224 57.3796L-222.621 52.6846C-217.674 54.1753 -212.538 54.9429 -207.372 54.9636C-195.869 54.9636 -186.987 51.1587 -177.587 47.1385C-168.187 43.1183 -158.396 38.9221 -145.886 38.9221C-133.375 38.9221 -123.623 43.0988 -114.184 47.1385C-104.745 51.1782 -95.9124 54.9636 -84.4095 54.9636C-72.9066 54.9636 -64.0251 51.1684 -54.6251 47.1385C-45.2252 43.1086 -35.434 38.9221 -22.9236 38.9221C-10.4131 38.9221 -0.661072 43.0988 8.77798 47.1385C18.217 51.1782 27.0496 54.9636 38.5623 54.9636C50.0751 54.9636 58.937 51.1587 68.337 47.1385C77.7369 43.1183 87.5379 38.9221 100.039 38.9221C112.539 38.9221 122.301 43.0988 131.74 47.1385C141.179 51.1782 150.022 54.9636 161.524 54.9636C166.691 54.9429 171.827 54.1753 176.774 52.6846L178.153 57.3796C172.758 58.9997 167.157 59.8332 161.524 59.8543Z" fill="#33CCE5"/>
<path d="M161.524 35.7921C149.014 35.7921 139.252 31.6154 129.823 27.5659C120.394 23.5164 111.541 19.7408 100.039 19.7408C88.5356 19.7408 79.6638 23.536 70.2639 27.5659C60.864 31.5959 51.063 35.7921 38.5623 35.7921C26.0617 35.7921 16.2901 31.6154 6.85104 27.5659C-2.58801 23.5164 -11.4206 19.7408 -22.9236 19.7408C-34.4265 19.7408 -43.308 23.536 -52.6982 27.5659C-62.0883 31.5959 -71.8991 35.7921 -84.4095 35.7921C-96.9199 35.7921 -106.672 31.6154 -116.111 27.5659C-125.55 23.5164 -134.383 19.7408 -145.886 19.7408C-157.389 19.7408 -166.27 23.536 -175.67 27.5659C-185.07 31.5959 -194.861 35.7921 -207.372 35.7921C-213.005 35.7723 -218.606 34.9354 -224 33.3076L-222.621 28.6125C-217.675 30.1063 -212.538 30.8772 -207.372 30.9014C-195.869 30.9014 -186.987 27.0964 -177.587 23.0762C-168.187 19.0561 -158.396 14.8599 -145.886 14.8599C-133.375 14.8599 -123.623 19.0365 -114.184 23.0762C-104.745 27.116 -95.9124 30.9014 -84.4095 30.9014C-72.9066 30.9014 -64.0251 27.0964 -54.6251 23.0762C-45.2252 19.0561 -35.434 14.8599 -22.9236 14.8599C-10.4131 14.8599 -0.661072 19.0365 8.77798 23.0762C18.217 27.116 27.0496 30.9014 38.5623 30.9014C50.0751 30.9014 58.937 27.0964 68.337 23.0762C77.7369 19.0561 87.5379 14.8599 100.039 14.8599C112.539 14.8599 122.301 19.0365 131.74 23.0762C141.179 27.116 150.022 30.9014 161.524 30.9014C166.691 30.8772 171.827 30.1063 176.774 28.6125L178.153 33.3076C172.759 34.9354 167.158 35.7723 161.524 35.7921Z" fill="#33CCE5"/>
<path d="M161.524 11.7201C149.014 11.7201 139.252 7.5434 129.823 3.50368C120.394 -0.536039 111.541 -4.32144 100.039 -4.32144C88.5356 -4.32144 79.6638 -0.516477 70.2639 3.50368C60.864 7.52384 51.063 11.7201 38.5623 11.7201C26.0617 11.7201 16.2901 7.5434 6.85104 3.50368C-2.58801 -0.536039 -11.4206 -4.32144 -22.9236 -4.32144C-34.4265 -4.32144 -43.308 -0.516477 -52.6982 3.50368C-62.0883 7.52384 -71.8991 11.7201 -84.4095 11.7201C-96.9199 11.7201 -106.672 7.5434 -116.111 3.50368C-125.55 -0.536039 -134.383 -4.32144 -145.886 -4.32144C-157.389 -4.32144 -166.27 -0.516477 -175.67 3.50368C-185.07 7.52384 -194.861 11.7201 -207.372 11.7201C-213.005 11.6989 -218.605 10.8655 -224 9.24537L-222.621 4.5503C-217.674 6.04104 -212.538 6.80867 -207.372 6.82936C-195.869 6.82936 -186.987 3.03418 -177.587 -0.995764C-168.187 -5.0257 -158.396 -9.22192 -145.886 -9.22192C-133.375 -9.22192 -123.623 -5.04527 -114.184 -0.995764C-104.745 3.05374 -95.9124 6.82936 -84.4095 6.82936C-72.9066 6.82936 -64.0251 3.03418 -54.6251 -0.995764C-45.2252 -5.0257 -35.434 -9.22192 -22.9236 -9.22192C-10.4131 -9.22192 -0.661072 -5.04527 8.77798 -0.995764C18.217 3.05374 27.0496 6.82936 38.5623 6.82936C50.0751 6.82936 58.937 3.03418 68.337 -0.995764C77.7369 -5.0257 87.5379 -9.22192 100.039 -9.22192C112.539 -9.22192 122.301 -5.04527 131.74 -0.995764C141.179 3.05374 150.022 6.82936 161.524 6.82936C166.691 6.80867 171.827 6.04104 176.774 4.5503L178.153 9.24537C172.758 10.8655 167.157 11.6989 161.524 11.7201Z" fill="#33CCE5"/>
<path d="M316.12 244.156L314.163 239.666C323.603 235.626 333.364 231.44 345.865 231.44C358.366 231.44 368.137 235.626 377.576 239.666L375.62 244.156C366.22 240.136 357.348 236.331 345.836 236.331C334.323 236.331 325.52 240.126 316.12 244.156Z" fill="#33CCE5"/>
<path d="M252.717 244.156C243.317 240.136 234.436 236.331 222.933 236.331C211.43 236.331 202.558 240.136 193.158 244.156L191.202 239.666C200.641 235.626 210.403 231.44 222.903 231.44C235.404 231.44 245.176 235.626 254.605 239.666L252.717 244.156Z" fill="#33CCE5"/>
<path d="M530.343 228.31C517.842 228.31 508.08 224.133 498.641 220.093C489.202 216.054 480.369 212.268 468.866 212.268C457.364 212.268 448.482 216.073 439.082 220.093C429.682 224.113 419.891 228.31 407.38 228.31C394.87 228.31 385.118 224.133 375.679 220.093C366.24 216.054 357.398 212.268 345.895 212.268C334.392 212.268 325.52 216.073 316.12 220.093C306.72 224.113 296.919 228.31 284.418 228.31C271.918 228.31 262.146 224.133 252.717 220.093C243.288 216.054 234.435 212.268 222.932 212.268C211.43 212.268 202.558 216.073 193.158 220.093C183.758 224.113 173.957 228.31 161.456 228.31C155.823 228.289 150.223 227.455 144.828 225.835L146.197 221.14C151.147 222.631 156.287 223.399 161.456 223.419C172.959 223.419 181.831 219.624 191.231 215.594C200.631 211.564 210.432 207.377 222.932 207.377C235.433 207.377 245.205 211.554 254.634 215.594C264.063 219.634 272.916 223.419 284.418 223.419C295.921 223.419 304.793 219.624 314.193 215.594C323.593 211.564 333.394 207.377 345.895 207.377C358.395 207.377 368.167 211.554 377.606 215.594C387.045 219.634 395.878 223.419 407.38 223.419C418.883 223.419 427.765 219.624 437.155 215.594C446.545 211.564 456.356 207.377 468.866 207.377C481.377 207.377 491.129 211.554 500.568 215.594C510.007 219.634 518.84 223.419 530.343 223.419C535.509 223.4 540.645 222.632 545.592 221.14L546.971 225.835C541.576 227.455 535.976 228.289 530.343 228.31Z" fill="#33CCE5"/>
<path d="M530.343 204.248C517.842 204.248 508.08 200.071 498.641 196.031C489.202 191.992 480.369 188.206 468.866 188.206C457.364 188.206 448.482 192.001 439.082 196.031C429.682 200.061 419.891 204.248 407.38 204.248C394.87 204.248 385.118 200.071 375.679 196.031C366.24 191.992 357.398 188.206 345.895 188.206C334.392 188.206 325.52 192.001 316.12 196.031C306.72 200.061 296.919 204.248 284.418 204.248C271.918 204.248 262.146 200.071 252.717 196.031C243.288 191.992 234.435 188.206 222.932 188.206C211.43 188.206 202.558 192.001 193.158 196.031C183.758 200.061 173.957 204.248 161.456 204.248C155.823 204.228 150.221 203.391 144.828 201.763L146.197 197.078C151.147 198.569 156.287 199.337 161.456 199.357C172.959 199.357 181.831 195.552 191.231 191.532C200.631 187.512 210.432 183.315 222.932 183.315C235.433 183.315 245.205 187.492 254.634 191.532C264.063 195.572 272.916 199.357 284.418 199.357C295.921 199.357 304.793 195.552 314.193 191.532C323.593 187.512 333.394 183.315 345.895 183.315C358.395 183.315 368.167 187.492 377.606 191.532C387.045 195.572 395.878 199.357 407.38 199.357C418.883 199.357 427.765 195.552 437.155 191.532C446.545 187.512 456.356 183.315 468.866 183.315C481.377 183.315 491.129 187.492 500.568 191.532C510.007 195.572 518.84 199.357 530.343 199.357C535.509 199.341 540.645 198.576 545.592 197.088L546.971 201.773C541.577 203.397 535.976 204.231 530.343 204.248Z" fill="#33CCE5"/>
<path d="M530.343 180.185C517.842 180.185 508.08 176.008 498.641 171.959C489.202 167.909 480.369 164.134 468.866 164.134C457.364 164.134 448.482 167.939 439.082 171.959C429.682 175.979 419.891 180.185 407.38 180.185C394.87 180.185 385.118 176.008 375.679 171.959C366.24 167.909 357.398 164.134 345.895 164.134C334.392 164.134 325.52 167.939 316.12 171.959C306.72 175.979 296.919 180.185 284.418 180.185C271.918 180.185 262.146 176.008 252.717 171.959C243.288 167.909 234.435 164.134 222.932 164.134C211.43 164.134 202.558 167.939 193.158 171.959C183.758 175.979 173.957 180.185 161.456 180.185C155.823 180.165 150.221 179.328 144.828 177.701L146.197 173.006C151.147 174.5 156.286 175.271 161.456 175.294C172.959 175.294 181.831 171.489 191.231 167.469C200.631 163.449 210.432 159.243 222.932 159.243C235.433 159.243 245.205 163.43 254.634 167.469C264.063 171.509 272.916 175.294 284.418 175.294C295.921 175.294 304.793 171.489 314.193 167.469C323.593 163.449 333.394 159.243 345.895 159.243C358.395 159.243 368.167 163.43 377.606 167.469C387.045 171.509 395.878 175.294 407.38 175.294C418.883 175.294 427.765 171.489 437.155 167.469C446.545 163.449 456.356 159.243 468.866 159.243C481.377 159.243 491.129 163.43 500.568 167.469C510.007 171.509 518.84 175.294 530.343 175.294C535.51 175.272 540.646 174.501 545.592 173.006L546.971 177.701C541.577 179.328 535.976 180.165 530.343 180.185Z" fill="#33CCE5"/>
<path d="M530.343 156.113C517.842 156.113 508.08 151.937 498.641 147.897C489.202 143.857 480.369 140.072 468.866 140.072C457.364 140.072 448.482 143.877 439.082 147.897C429.682 151.917 419.891 156.113 407.38 156.113C394.87 156.113 385.118 151.937 375.679 147.897C366.24 143.857 357.398 140.072 345.895 140.072C334.392 140.072 325.52 143.877 316.12 147.897C306.72 151.917 296.919 156.113 284.418 156.113C271.918 156.113 262.146 151.937 252.717 147.897C243.288 143.857 234.435 140.072 222.932 140.072C211.43 140.072 202.558 143.877 193.158 147.897C183.758 151.917 173.957 156.113 161.456 156.113C155.823 156.092 150.223 155.259 144.828 153.639L146.197 148.944C151.147 150.435 156.287 151.203 161.456 151.223C172.959 151.223 181.831 147.427 191.231 143.398C200.631 139.368 210.432 135.181 222.932 135.181C235.433 135.181 245.205 139.358 254.634 143.398C264.063 147.437 272.916 151.223 284.418 151.223C295.921 151.223 304.793 147.427 314.193 143.398C323.593 139.368 333.394 135.181 345.895 135.181C358.395 135.181 368.167 139.358 377.606 143.398C387.045 147.437 395.878 151.223 407.38 151.223C418.883 151.223 427.765 147.427 437.155 143.398C446.545 139.368 456.356 135.181 468.866 135.181C481.377 135.181 491.129 139.358 500.568 143.398C510.007 147.437 518.84 151.223 530.343 151.223C535.509 151.203 540.645 150.436 545.592 148.944L546.971 153.639C541.576 155.259 535.976 156.092 530.343 156.113Z" fill="#33CCE5"/>
<path d="M530.343 132.051C517.842 132.051 508.08 127.874 498.641 123.834C489.202 119.795 480.369 116.009 468.866 116.009C457.364 116.009 448.482 119.805 439.082 123.834C429.682 127.864 419.891 132.051 407.38 132.051C394.87 132.051 385.118 127.874 375.679 123.834C366.24 119.795 357.398 116.009 345.895 116.009C334.392 116.009 325.52 119.805 316.12 123.834C306.72 127.864 296.919 132.051 284.418 132.051C271.918 132.051 262.146 127.874 252.717 123.834C243.288 119.795 234.435 116.009 222.932 116.009C211.43 116.009 202.558 119.805 193.158 123.834C183.758 127.864 173.957 132.051 161.456 132.051C155.823 132.031 150.221 131.194 144.828 129.566L146.197 124.881C151.147 126.372 156.287 127.14 161.456 127.16C172.959 127.16 181.831 123.355 191.231 119.335C200.631 115.315 210.432 111.119 222.932 111.119C235.433 111.119 245.205 115.295 254.634 119.335C264.063 123.375 272.916 127.16 284.418 127.16C295.921 127.16 304.793 123.365 314.193 119.335C323.593 115.305 333.394 111.119 345.895 111.119C358.395 111.119 368.167 115.295 377.606 119.335C387.045 123.375 395.878 127.16 407.38 127.16C418.883 127.16 427.765 123.355 437.155 119.335C446.545 115.315 456.356 111.119 468.866 111.119C481.377 111.119 491.129 115.295 500.568 119.335C510.007 123.375 518.84 127.16 530.343 127.16C535.509 127.141 540.645 126.373 545.592 124.881L546.971 129.566C541.577 131.194 535.976 132.031 530.343 132.051Z" fill="#33CCE5"/>
<path d="M530.343 107.989C517.842 107.989 508.08 103.812 498.641 99.7625C489.202 95.7129 480.369 91.9373 468.866 91.9373C457.364 91.9373 448.482 95.7325 439.082 99.7625C429.682 103.792 419.891 107.989 407.38 107.989C394.87 107.989 385.118 103.812 375.679 99.7625C366.24 95.7129 357.398 91.9373 345.895 91.9373C334.392 91.9373 325.52 95.7325 316.12 99.7625C306.72 103.792 296.919 107.989 284.418 107.989C271.918 107.989 262.146 103.812 252.717 99.7625C243.288 95.7129 234.435 91.9373 222.932 91.9373C211.43 91.9373 202.558 95.7325 193.158 99.7625C183.758 103.792 173.957 107.989 161.456 107.989C155.823 107.969 150.221 107.132 144.828 105.504L146.197 100.809C151.147 102.304 156.286 103.074 161.456 103.098C172.959 103.098 181.831 99.2929 191.231 95.2728C200.631 91.2526 210.432 87.0564 222.932 87.0564C235.433 87.0564 245.205 91.2331 254.634 95.2728C264.063 99.3125 272.916 103.098 284.418 103.098C295.921 103.098 304.793 99.2929 314.193 95.2728C323.593 91.2526 333.394 87.0564 345.895 87.0564C358.395 87.0564 368.167 91.2331 377.606 95.2728C387.045 99.3125 395.878 103.098 407.38 103.098C418.883 103.098 427.765 99.2929 437.155 95.2728C446.545 91.2526 456.356 87.0564 468.866 87.0564C481.377 87.0564 491.129 91.2331 500.568 95.2728C510.007 99.3125 518.84 103.098 530.343 103.098C535.51 103.075 540.646 102.304 545.592 100.809L546.971 105.504C541.577 107.132 535.976 107.969 530.343 107.989Z" fill="#33CCE5"/>
<path d="M530.343 83.9166C517.842 83.9166 508.08 79.7399 498.641 75.7002C489.202 71.6605 480.369 67.8751 468.866 67.8751C457.364 67.8751 448.482 71.6801 439.082 75.7002C429.682 79.7204 419.891 83.9166 407.38 83.9166C394.87 83.9166 385.118 79.7399 375.679 75.7002C366.24 71.6605 357.398 67.8751 345.895 67.8751C334.392 67.8751 325.52 71.6801 316.12 75.7002C306.72 79.7204 296.919 83.9166 284.418 83.9166C271.918 83.9166 262.146 79.7399 252.717 75.7002C243.288 71.6605 234.435 67.8751 222.932 67.8751C211.43 67.8751 202.558 71.6801 193.158 75.7002C183.758 79.7204 173.957 83.9166 161.456 83.9166C155.823 83.8955 150.223 83.062 144.828 81.4419L146.197 76.7468C151.147 78.2382 156.287 79.0059 161.456 79.0259C172.959 79.0259 181.831 75.2307 191.231 71.2008C200.631 67.1708 210.432 62.9746 222.932 62.9746C235.433 62.9746 245.205 67.1513 254.634 71.2008C264.063 75.2503 272.916 79.0259 284.418 79.0259C295.921 79.0259 304.793 75.2307 314.193 71.2008C323.593 67.1708 333.394 62.9746 345.895 62.9746C358.395 62.9746 368.167 67.1513 377.606 71.2008C387.045 75.2503 395.878 79.0259 407.38 79.0259C418.883 79.0259 427.765 75.2307 437.155 71.2008C446.545 67.1708 456.356 62.9746 468.866 62.9746C481.377 62.9746 491.129 67.1513 500.568 71.2008C510.007 75.2503 518.84 79.0259 530.343 79.0259C535.508 79.0161 540.644 78.2583 545.592 76.7762L546.971 81.4713C541.575 83.0814 535.974 83.905 530.343 83.9166Z" fill="#33CCE5"/>
<path d="M530.343 59.8543C517.842 59.8543 508.08 55.6777 498.641 51.6379C489.202 47.5982 480.369 43.8128 468.866 43.8128C457.364 43.8128 448.482 47.608 439.082 51.6379C429.682 55.6679 419.891 59.8543 407.38 59.8543C394.87 59.8543 385.118 55.6777 375.679 51.6379C366.24 47.5982 357.398 43.8128 345.895 43.8128C334.392 43.8128 325.52 47.608 316.12 51.6379C306.72 55.6679 296.919 59.8543 284.418 59.8543C271.918 59.8543 262.146 55.6777 252.717 51.6379C243.288 47.5982 234.435 43.8128 222.932 43.8128C211.43 43.8128 202.558 47.608 193.158 51.6379C183.758 55.6679 173.957 59.8543 161.456 59.8543C155.823 59.8332 150.223 58.9997 144.828 57.3796L146.197 52.6846C151.147 54.176 156.287 54.9436 161.456 54.9636C172.959 54.9636 181.831 51.1587 191.231 47.1385C200.631 43.1183 210.432 38.9221 222.932 38.9221C235.433 38.9221 245.205 43.0988 254.634 47.1385C264.063 51.1782 272.916 54.9636 284.418 54.9636C295.921 54.9636 304.793 51.1684 314.193 47.1385C323.593 43.1086 333.394 38.9221 345.895 38.9221C358.395 38.9221 368.167 43.0988 377.606 47.1385C387.045 51.1782 395.878 54.9636 407.38 54.9636C418.883 54.9636 427.765 51.1587 437.155 47.1385C446.545 43.1183 456.356 38.9221 468.866 38.9221C481.377 38.9221 491.129 43.0988 500.568 47.1385C510.007 51.1782 518.84 54.9636 530.343 54.9636C535.509 54.9443 540.645 54.1766 545.592 52.6846L546.971 57.3796C541.576 58.9997 535.976 59.8332 530.343 59.8543Z" fill="#33CCE5"/>
<path d="M530.343 35.7921C517.842 35.7921 508.08 31.6154 498.641 27.5659C489.202 23.5164 480.369 19.7408 468.866 19.7408C457.364 19.7408 448.482 23.536 439.082 27.5659C429.682 31.5959 419.891 35.7921 407.38 35.7921C394.87 35.7921 385.118 31.6154 375.679 27.5659C366.24 23.5164 357.398 19.7408 345.895 19.7408C334.392 19.7408 325.52 23.536 316.12 27.5659C306.72 31.5959 296.929 35.7921 284.418 35.7921C271.908 35.7921 262.146 31.6154 252.717 27.5659C243.288 23.5164 234.435 19.7408 222.932 19.7408C211.43 19.7408 202.558 23.536 193.158 27.5659C183.758 31.5959 173.957 35.7921 161.456 35.7921C155.823 35.7723 150.221 34.9354 144.828 33.3076L146.197 28.6125C151.147 30.107 156.286 30.8779 161.456 30.9014C172.959 30.9014 181.831 27.0964 191.231 23.0762C200.631 19.0561 210.432 14.8599 222.932 14.8599C235.433 14.8599 245.205 19.0365 254.634 23.0762C264.063 27.116 272.916 30.9014 284.418 30.9014C295.921 30.9014 304.793 27.0964 314.193 23.0762C323.593 19.0561 333.394 14.8599 345.895 14.8599C358.395 14.8599 368.167 19.0365 377.606 23.0762C387.045 27.116 395.878 30.9014 407.38 30.9014C418.883 30.9014 427.765 27.0964 437.155 23.0762C446.545 19.0561 456.356 14.8599 468.866 14.8599C481.377 14.8599 491.129 19.0365 500.568 23.0762C510.007 27.116 518.84 30.9014 530.343 30.9014C535.51 30.8786 540.646 30.1077 545.592 28.6125L546.971 33.3076C541.577 34.9354 535.976 35.7723 530.343 35.7921Z" fill="#33CCE5"/>
<path d="M530.343 11.7201C517.842 11.7201 508.08 7.5434 498.641 3.50368C489.202 -0.536039 480.369 -4.32144 468.866 -4.32144C457.364 -4.32144 448.482 -0.516477 439.082 3.50368C429.682 7.52384 419.891 11.7201 407.38 11.7201C394.87 11.7201 385.118 7.5434 375.679 3.50368C366.24 -0.536039 357.398 -4.32144 345.895 -4.32144C334.392 -4.32144 325.52 -0.516477 316.12 3.50368C306.72 7.52384 296.919 11.7201 284.418 11.7201C271.918 11.7201 262.146 7.5434 252.717 3.50368C243.288 -0.536039 234.435 -4.32144 222.932 -4.32144C211.43 -4.32144 202.558 -0.516477 193.158 3.50368C183.758 7.52384 173.957 11.7201 161.456 11.7201C155.823 11.6989 150.223 10.8655 144.828 9.24537L146.197 4.5503C151.147 6.04171 156.287 6.80934 161.456 6.82936C172.959 6.82936 181.831 3.03418 191.231 -0.995764C200.631 -5.0257 210.432 -9.22192 222.932 -9.22192C235.433 -9.22192 245.205 -5.04527 254.634 -0.995764C264.063 3.05374 272.916 6.82936 284.418 6.82936C295.921 6.82936 304.793 3.03418 314.193 -0.995764C323.593 -5.0257 333.394 -9.22192 345.895 -9.22192C358.395 -9.22192 368.167 -5.04527 377.606 -0.995764C387.045 3.05374 395.878 6.82936 407.38 6.82936C418.883 6.82936 427.765 3.03418 437.155 -0.995764C446.545 -5.0257 456.356 -9.22192 468.866 -9.22192C481.377 -9.22192 491.129 -5.04527 500.568 -0.995764C510.007 3.05374 518.84 6.82936 530.343 6.82936C535.509 6.81004 540.645 6.04239 545.592 4.5503L546.971 9.24537C541.576 10.8655 535.976 11.6989 530.343 11.7201Z" fill="#33CCE5"/>
<path d="M161.524 396.785C149.014 396.785 139.252 392.608 129.823 388.569C120.394 384.529 111.541 380.744 100.039 380.744C88.5356 380.744 79.6638 384.539 70.2639 388.569C60.864 392.599 51.063 396.785 38.5623 396.785C26.0617 396.785 16.2901 392.608 6.85104 388.569C-2.58801 384.529 -11.4206 380.744 -22.9236 380.744C-34.4265 380.744 -43.308 384.539 -52.6982 388.569C-62.0883 392.599 -71.8991 396.785 -84.4095 396.785C-96.9199 396.785 -106.672 392.608 -116.111 388.569C-125.55 384.529 -134.383 380.744 -145.886 380.744C-157.389 380.744 -166.27 384.539 -175.67 388.569C-185.07 392.599 -194.861 396.785 -207.372 396.785C-213.005 396.765 -218.606 395.928 -224 394.301L-222.621 389.606C-217.676 391.104 -212.539 391.875 -207.372 391.894C-195.869 391.894 -186.987 388.089 -177.587 384.069C-168.187 380.049 -158.396 375.853 -145.886 375.853C-133.375 375.853 -123.623 380.03 -114.184 384.069C-104.745 388.109 -95.9124 391.894 -84.4095 391.894C-72.9066 391.894 -64.0251 388.089 -54.6251 384.069C-45.2252 380.049 -35.434 375.853 -22.9236 375.853C-10.4131 375.853 -0.661072 380.03 8.77798 384.069C18.217 388.109 27.0496 391.894 38.5623 391.894C50.0751 391.894 58.937 388.089 68.337 384.069C77.7369 380.049 87.5379 375.853 100.039 375.853C112.539 375.853 122.301 380.03 131.74 384.069C141.179 388.109 150.022 391.894 161.524 391.894C166.692 391.875 171.829 391.104 176.774 389.606L178.153 394.301C172.759 395.928 167.158 396.765 161.524 396.785Z" fill="#33CCE5"/>
<path d="M161.524 372.723C149.014 372.723 139.252 368.537 129.823 364.497C120.394 360.457 111.541 356.672 100.039 356.672C88.5356 356.672 79.6638 360.477 70.2639 364.497C60.864 368.517 51.063 372.723 38.5623 372.723C26.0617 372.723 16.2901 368.537 6.85104 364.497C-2.58801 360.457 -11.4206 356.672 -22.9236 356.672C-34.4265 356.672 -43.308 360.477 -52.6982 364.497C-62.0883 368.517 -71.8991 372.723 -84.4095 372.723C-96.9199 372.723 -106.672 368.537 -116.111 364.497C-125.55 360.457 -134.383 356.672 -145.886 356.672C-157.389 356.672 -166.27 360.477 -175.67 364.497C-185.07 368.517 -194.861 372.723 -207.372 372.723C-213.005 372.703 -218.606 371.866 -224 370.239L-222.621 365.543C-217.675 367.037 -212.538 367.808 -207.372 367.832C-195.869 367.832 -186.987 364.027 -177.587 360.007C-168.187 355.987 -158.396 351.781 -145.886 351.781C-133.375 351.781 -123.623 355.967 -114.184 360.007C-104.745 364.047 -95.9124 367.832 -84.4095 367.832C-72.9066 367.832 -64.0251 364.027 -54.6251 360.007C-45.2252 355.987 -35.434 351.781 -22.9236 351.781C-10.4131 351.781 -0.661072 355.967 8.77798 360.007C18.217 364.047 27.0496 367.832 38.5623 367.832C50.0751 367.832 58.937 364.027 68.337 360.007C77.7369 355.987 87.5379 351.781 100.039 351.781C112.539 351.781 122.301 355.967 131.74 360.007C141.179 364.047 150.022 367.832 161.524 367.832C166.691 367.808 171.827 367.037 176.774 365.543L178.153 370.239C172.759 371.865 167.158 372.702 161.524 372.723Z" fill="#33CCE5"/>
<path d="M161.524 348.7C149.014 348.7 139.252 344.523 129.823 340.483C120.394 336.444 111.541 332.658 100.039 332.658C88.5356 332.658 79.6638 336.463 70.2639 340.483C60.864 344.504 51.063 348.7 38.5623 348.7C26.0617 348.7 16.2901 344.523 6.85104 340.483C-2.58801 336.444 -11.4206 332.658 -22.9236 332.658C-34.4265 332.658 -43.308 336.463 -52.6982 340.483C-62.0883 344.504 -71.8991 348.7 -84.4095 348.7C-96.9199 348.7 -106.672 344.523 -116.111 340.483C-125.55 336.444 -134.383 332.658 -145.886 332.658C-157.389 332.658 -166.27 336.463 -175.67 340.483C-185.07 344.504 -194.861 348.7 -207.372 348.7C-213.005 348.679 -218.605 347.845 -224 346.225L-222.621 341.53C-217.674 343.021 -212.538 343.788 -207.372 343.809C-195.869 343.809 -186.987 340.014 -177.587 335.984C-168.187 331.954 -158.396 327.768 -145.886 327.768C-133.375 327.768 -123.623 331.944 -114.184 335.984C-104.745 340.024 -95.9124 343.809 -84.4095 343.809C-72.9066 343.809 -64.0251 340.014 -54.6251 335.984C-45.2252 331.954 -35.434 327.768 -22.9236 327.768C-10.4131 327.768 -0.661072 331.944 8.77798 335.984C18.217 340.024 27.0496 343.809 38.5623 343.809C50.0751 343.809 58.937 340.014 68.337 335.984C77.7369 331.954 87.5379 327.768 100.039 327.768C112.539 327.768 122.301 331.944 131.74 335.984C141.179 340.024 150.022 343.809 161.524 343.809C166.691 343.788 171.827 343.021 176.774 341.53L178.153 346.225C172.758 347.844 167.157 348.677 161.524 348.7Z" fill="#33CCE5"/>
<path d="M161.524 324.589C149.014 324.589 139.252 320.412 129.823 316.372C120.394 312.333 111.541 308.547 100.039 308.547C88.5356 308.547 79.6638 312.342 70.2639 316.372C60.864 320.402 51.063 324.589 38.5623 324.589C26.0617 324.589 16.2901 320.412 6.85104 316.372C-2.58801 312.333 -11.4206 308.547 -22.9236 308.547C-34.4265 308.547 -43.308 312.342 -52.6982 316.372C-62.0883 320.402 -71.8991 324.589 -84.4095 324.589C-96.9199 324.589 -106.672 320.412 -116.111 316.372C-125.55 312.333 -134.383 308.547 -145.886 308.547C-157.389 308.547 -166.27 312.342 -175.67 316.372C-185.07 320.402 -194.861 324.589 -207.372 324.589C-213.005 324.569 -218.606 323.732 -224 322.104L-222.621 317.399C-217.674 318.89 -212.538 319.658 -207.372 319.678C-195.869 319.678 -186.987 315.873 -177.587 311.853C-168.187 307.833 -158.396 303.705 -145.886 303.705C-133.375 303.705 -123.623 307.882 -114.184 311.922C-104.745 315.961 -95.9124 319.747 -84.4095 319.747C-72.9066 319.747 -64.0251 315.942 -54.6251 311.922C-45.2252 307.902 -35.434 303.705 -22.9236 303.705C-10.4131 303.705 -0.661072 307.882 8.77798 311.922C18.217 315.961 27.0496 319.747 38.5623 319.747C50.0751 319.747 58.937 315.942 68.337 311.922C77.7369 307.902 87.5379 303.705 100.039 303.705C112.539 303.705 122.301 307.882 131.74 311.922C141.179 315.961 150.022 319.747 161.524 319.747C166.694 319.704 171.83 318.913 176.774 317.399L178.153 322.085C172.76 323.719 167.159 324.563 161.524 324.589Z" fill="#33CCE5"/>
<path d="M161.524 300.526C149.014 300.526 139.252 296.34 129.823 292.3C120.394 288.26 111.541 284.475 100.039 284.475C88.5356 284.475 79.6638 288.28 70.2639 292.3C60.864 296.32 51.063 300.526 38.5623 300.526C26.0617 300.526 16.2901 296.34 6.85104 292.3C-2.58801 288.26 -11.4206 284.475 -22.9236 284.475C-34.4265 284.475 -43.308 288.28 -52.6982 292.3C-62.0883 296.32 -71.8991 300.526 -84.4095 300.526C-96.9199 300.526 -106.672 296.34 -116.111 292.3C-125.55 288.26 -134.383 284.475 -145.886 284.475C-157.389 284.475 -166.27 288.28 -175.67 292.3C-185.07 296.32 -194.861 300.526 -207.372 300.526C-213.005 300.506 -218.606 299.67 -224 298.042L-222.621 293.347C-217.675 294.84 -212.538 295.611 -207.372 295.636C-195.869 295.636 -186.987 291.831 -177.587 287.81C-168.187 283.79 -158.396 279.584 -145.886 279.584C-133.375 279.584 -123.623 283.771 -114.184 287.81C-104.745 291.85 -95.9124 295.636 -84.4095 295.636C-72.9066 295.636 -64.0251 291.831 -54.6251 287.81C-45.2252 283.79 -35.434 279.584 -22.9236 279.584C-10.4131 279.584 -0.661072 283.771 8.77798 287.81C18.217 291.85 27.0496 295.636 38.5623 295.636C50.0751 295.636 58.937 291.831 68.337 287.81C77.7369 283.79 87.5379 279.584 100.039 279.584C112.539 279.584 122.301 283.771 131.74 287.81C141.179 291.85 150.022 295.636 161.524 295.636C166.691 295.611 171.827 294.84 176.774 293.347L178.153 298.042C172.759 299.67 167.158 300.506 161.524 300.526Z" fill="#33CCE5"/>
<path d="M161.524 276.454C149.014 276.454 139.252 272.278 129.823 268.238C120.394 264.198 111.541 260.413 100.039 260.413C88.5356 260.413 79.6638 264.218 70.2639 268.238C60.864 272.258 51.063 276.454 38.5623 276.454C26.0617 276.454 16.2901 272.278 6.85104 268.238C-2.58801 264.198 -11.4206 260.413 -22.9236 260.413C-34.4265 260.413 -43.308 264.218 -52.6982 268.238C-62.0883 272.258 -71.8991 276.454 -84.4095 276.454C-96.9199 276.454 -106.672 272.278 -116.111 268.238C-125.55 264.198 -134.383 260.413 -145.886 260.413C-157.389 260.413 -166.27 264.218 -175.67 268.238C-185.07 272.258 -194.861 276.454 -207.372 276.454C-213.005 276.433 -218.605 275.6 -224 273.98L-222.621 269.285C-217.674 270.775 -212.538 271.543 -207.372 271.564C-195.869 271.564 -186.987 267.769 -177.587 263.739C-168.187 259.709 -158.396 255.522 -145.886 255.522C-133.375 255.522 -123.623 259.699 -114.184 263.739C-104.745 267.778 -95.9124 271.564 -84.4095 271.564C-72.9066 271.564 -64.0251 267.769 -54.6251 263.739C-45.2252 259.709 -35.434 255.522 -22.9236 255.522C-10.4131 255.522 -0.661072 259.699 8.77798 263.739C18.217 267.778 27.0496 271.564 38.5623 271.564C50.0751 271.564 58.937 267.769 68.337 263.739C77.7369 259.709 87.5379 255.522 100.039 255.522C112.539 255.522 122.301 259.699 131.74 263.739C141.179 267.778 150.022 271.564 161.524 271.564C166.691 271.543 171.827 270.775 176.774 269.285L178.153 273.98C172.758 275.6 167.157 276.433 161.524 276.454Z" fill="#33CCE5"/>
<path d="M161.524 252.392C149.014 252.392 139.252 248.215 129.823 244.176C120.394 240.136 111.541 236.35 100.039 236.35C88.5356 236.35 79.6638 240.146 70.2639 244.176C60.864 248.205 51.063 252.392 38.5623 252.392C26.0617 252.392 16.2901 248.215 6.85104 244.176C-2.58801 240.136 -11.4206 236.35 -22.9236 236.35C-34.4265 236.35 -43.308 240.146 -52.6982 244.176C-62.0883 248.205 -71.8991 252.392 -84.4095 252.392C-96.9199 252.392 -106.672 248.215 -116.111 244.176C-125.55 240.136 -134.383 236.35 -145.886 236.35C-157.389 236.35 -166.27 240.146 -175.67 244.176C-185.07 248.205 -194.861 252.392 -207.372 252.392C-213.005 252.372 -218.606 251.535 -224 249.907L-222.621 245.222C-217.674 246.713 -212.538 247.481 -207.372 247.501C-195.869 247.501 -186.987 243.696 -177.587 239.676C-168.187 235.656 -158.396 231.46 -145.886 231.46C-133.375 231.46 -123.623 235.636 -114.184 239.676C-104.745 243.716 -95.9124 247.501 -84.4095 247.501C-72.9066 247.501 -64.0251 243.696 -54.6251 239.676C-45.2252 235.656 -35.434 231.46 -22.9236 231.46C-10.4131 231.46 -0.661072 235.636 8.77798 239.676C18.217 243.716 27.0496 247.501 38.5623 247.501C50.0751 247.501 58.937 243.696 68.337 239.676C77.7369 235.656 87.5379 231.46 100.039 231.46C112.539 231.46 122.301 235.636 131.74 239.676C141.179 243.716 150.022 247.501 161.524 247.501C166.691 247.481 171.827 246.713 176.774 245.222L178.153 249.907C172.759 251.535 167.158 252.372 161.524 252.392Z" fill="#33CCE5"/>
<path d="M161.524 228.33C149.014 228.33 139.252 224.143 129.823 220.104C120.394 216.064 111.541 212.278 100.039 212.278C88.5356 212.278 79.6638 216.083 70.2639 220.104C60.864 224.124 51.063 228.33 38.5623 228.33C26.0617 228.33 16.2901 224.143 6.85104 220.104C-2.58801 216.064 -11.4206 212.278 -22.9236 212.278C-34.4265 212.278 -43.308 216.083 -52.6982 220.104C-62.0883 224.124 -71.8991 228.33 -84.4095 228.33C-96.9199 228.33 -106.672 224.143 -116.111 220.104C-125.55 216.064 -134.383 212.278 -145.886 212.278C-157.389 212.278 -166.27 216.083 -175.67 220.104C-185.07 224.124 -194.861 228.33 -207.372 228.33C-213.005 228.31 -218.606 227.473 -224 225.845L-222.621 221.15C-217.675 222.644 -212.538 223.415 -207.372 223.439C-195.869 223.439 -186.987 219.634 -177.587 215.614C-168.187 211.594 -158.396 207.388 -145.886 207.388C-133.375 207.388 -123.623 211.574 -114.184 215.614C-104.745 219.654 -95.9124 223.439 -84.4095 223.439C-72.9066 223.439 -64.0251 219.634 -54.6251 215.614C-45.2252 211.594 -35.434 207.388 -22.9236 207.388C-10.4131 207.388 -0.661072 211.574 8.77798 215.614C18.217 219.654 27.0496 223.439 38.5623 223.439C50.0751 223.439 58.937 219.634 68.337 215.614C77.7369 211.594 87.5379 207.388 100.039 207.388C112.539 207.388 122.301 211.574 131.74 215.614C141.179 219.654 150.022 223.439 161.524 223.439C166.691 223.415 171.827 222.644 176.774 221.15L178.153 225.845C172.759 227.472 167.158 228.309 161.524 228.33Z" fill="#33CCE5"/>
<path d="M161.524 204.258C149.014 204.258 139.252 200.081 129.823 196.041C120.394 192.002 111.541 188.216 100.039 188.216C88.5356 188.216 79.6638 192.021 70.2639 196.041C60.864 200.061 51.063 204.258 38.5623 204.258C26.0617 204.258 16.2901 200.081 6.85104 196.041C-2.58801 192.002 -11.4206 188.216 -22.9236 188.216C-34.4265 188.216 -43.308 192.021 -52.6982 196.041C-62.0883 200.061 -71.8991 204.258 -84.4095 204.258C-96.9199 204.258 -106.672 200.081 -116.111 196.041C-125.55 192.002 -134.383 188.216 -145.886 188.216C-157.389 188.216 -166.27 192.021 -175.67 196.041C-185.07 200.061 -194.861 204.258 -207.372 204.258C-213.005 204.237 -218.605 203.403 -224 201.783L-222.621 197.088C-217.674 198.579 -212.538 199.346 -207.372 199.367C-195.869 199.367 -186.987 195.572 -177.587 191.542C-168.187 187.512 -158.396 183.325 -145.886 183.325C-133.375 183.325 -123.623 187.502 -114.184 191.542C-104.745 195.582 -95.9124 199.367 -84.4095 199.367C-72.9066 199.367 -64.0251 195.572 -54.6251 191.542C-45.2252 187.512 -35.434 183.325 -22.9236 183.325C-10.4131 183.325 -0.661072 187.502 8.77798 191.542C18.217 195.582 27.0496 199.367 38.5623 199.367C50.0751 199.367 58.937 195.572 68.337 191.542C77.7369 187.512 87.5379 183.325 100.039 183.325C112.539 183.325 122.301 187.502 131.74 191.542C141.179 195.582 150.022 199.367 161.524 199.367C166.691 199.346 171.827 198.579 176.774 197.088L178.153 201.783C172.758 203.402 167.157 204.235 161.524 204.258Z" fill="#33CCE5"/>
<path d="M161.524 180.195C149.014 180.195 139.252 176.019 129.823 171.979C120.394 167.939 111.541 164.154 100.039 164.154C88.5356 164.154 79.6638 167.949 70.2639 171.979C60.864 176.009 51.063 180.195 38.5623 180.195C26.0617 180.195 16.2901 176.019 6.85104 171.979C-2.58801 167.939 -11.4206 164.154 -22.9236 164.154C-34.4265 164.154 -43.308 167.949 -52.6982 171.979C-62.0883 176.009 -71.8991 180.195 -84.4095 180.195C-96.9199 180.195 -106.672 176.019 -116.111 171.979C-125.55 167.939 -134.383 164.154 -145.886 164.154C-157.389 164.154 -166.27 167.949 -175.67 171.979C-185.07 176.009 -194.861 180.195 -207.372 180.195C-213.005 180.174 -218.606 179.337 -224 177.711L-222.621 173.026C-217.674 174.516 -212.538 175.284 -207.372 175.305C-195.869 175.305 -186.987 171.5 -177.587 167.48C-168.187 163.459 -158.396 159.263 -145.886 159.263C-133.375 159.263 -123.623 163.44 -114.184 167.48C-104.745 171.519 -95.9124 175.305 -84.4095 175.305C-72.9066 175.305 -64.0251 171.5 -54.6251 167.48C-45.2252 163.459 -35.434 159.263 -22.9236 159.263C-10.4131 159.263 -0.661072 163.44 8.77798 167.48C18.217 171.519 27.0496 175.305 38.5623 175.305C50.0751 175.305 58.937 171.5 68.337 167.48C77.7369 163.459 87.5379 159.263 100.039 159.263C112.539 159.263 122.301 163.44 131.74 167.48C141.179 171.519 150.022 175.305 161.524 175.305C166.691 175.284 171.827 174.516 176.774 173.026L178.153 177.711C172.759 179.339 167.158 180.176 161.524 180.195Z" fill="#33CCE5"/>
<path d="M161.524 156.133C149.014 156.133 139.252 151.947 129.823 147.907C120.394 143.867 111.541 140.082 100.039 140.082C88.5356 140.082 79.6638 143.887 70.2639 147.907C60.864 151.927 51.063 156.133 38.5623 156.133C26.0617 156.133 16.2901 151.947 6.85104 147.907C-2.58801 143.867 -11.4206 140.082 -22.9236 140.082C-34.4265 140.082 -43.308 143.887 -52.6982 147.907C-62.0883 151.927 -71.8991 156.133 -84.4095 156.133C-96.9199 156.133 -106.672 151.947 -116.111 147.907C-125.55 143.867 -134.383 140.082 -145.886 140.082C-157.389 140.082 -166.27 143.887 -175.67 147.907C-185.07 151.927 -194.861 156.133 -207.372 156.133C-213.005 156.113 -218.606 155.276 -224 153.649L-222.621 148.954C-217.675 150.447 -212.538 151.218 -207.372 151.242C-195.869 151.242 -186.987 147.437 -177.587 143.417C-168.187 139.397 -158.396 135.191 -145.886 135.191C-133.375 135.191 -123.623 139.378 -114.184 143.417C-104.745 147.457 -95.9124 151.242 -84.4095 151.242C-72.9066 151.242 -64.0251 147.437 -54.6251 143.417C-45.2252 139.397 -35.434 135.191 -22.9236 135.191C-10.4131 135.191 -0.661072 139.378 8.77798 143.417C18.217 147.457 27.0496 151.242 38.5623 151.242C50.0751 151.242 58.937 147.437 68.337 143.417C77.7369 139.397 87.5379 135.191 100.039 135.191C112.539 135.191 122.301 139.378 131.74 143.417C141.179 147.457 150.022 151.242 161.524 151.242C166.691 151.218 171.827 150.447 176.774 148.954L178.153 153.649C172.759 155.276 167.158 156.113 161.524 156.133Z" fill="#33CCE5"/>
<path d="M161.526 132.061C149.015 132.061 139.253 127.884 129.824 123.845L131.78 119.345C141.18 123.375 150.062 127.17 161.565 127.17C166.731 127.15 171.867 126.383 176.814 124.891L178.193 129.586C172.785 131.21 167.172 132.044 161.526 132.061Z" fill="#33CCE5"/>
<path d="M38.562 132.061C26.0516 132.061 16.2897 127.884 6.85068 123.845L8.80696 119.345C18.2069 123.375 27.0786 127.17 38.5914 127.17C50.1041 127.17 58.966 123.375 68.3659 119.345L70.3222 123.845C60.8245 127.884 51.0626 132.061 38.562 132.061Z" fill="#33CCE5"/>
<path d="M530.343 396.785C517.842 396.785 508.08 392.608 498.641 388.569C489.202 384.529 480.369 380.744 468.866 380.744C457.364 380.744 448.482 384.539 439.082 388.569C429.682 392.599 419.891 396.785 407.38 396.785C394.87 396.785 385.118 392.608 375.679 388.569C366.24 384.529 357.398 380.744 345.895 380.744C334.392 380.744 325.52 384.539 316.12 388.569C306.72 392.599 296.919 396.785 284.418 396.785C271.918 396.785 262.146 392.608 252.717 388.569C243.288 384.529 234.435 380.744 222.932 380.744C211.43 380.744 202.558 384.539 193.158 388.569C183.758 392.599 173.957 396.785 161.456 396.785C155.823 396.765 150.221 395.928 144.828 394.301L146.197 389.606C151.146 391.105 156.286 391.876 161.456 391.894C172.959 391.894 181.831 388.089 191.231 384.069C200.631 380.049 210.432 375.853 222.932 375.853C235.433 375.853 245.205 380.03 254.634 384.069C264.063 388.109 272.916 391.894 284.418 391.894C295.921 391.894 304.793 388.089 314.193 384.069C323.593 380.049 333.394 375.853 345.895 375.853C358.395 375.853 368.167 380.03 377.606 384.069C387.045 388.109 395.878 391.894 407.38 391.894C418.883 391.894 427.765 388.089 437.155 384.069C446.545 380.049 456.356 375.853 468.866 375.853C481.377 375.853 491.129 380.03 500.568 384.069C510.007 388.109 518.84 391.894 530.343 391.894C535.51 391.876 540.647 391.105 545.592 389.606L546.971 394.301C541.577 395.928 535.976 396.765 530.343 396.785Z" fill="#33CCE5"/>
<path d="M530.343 372.723C517.842 372.723 508.08 368.537 498.641 364.497C489.202 360.457 480.369 356.672 468.866 356.672C457.364 356.672 448.482 360.477 439.082 364.497C429.682 368.517 419.891 372.723 407.38 372.723C394.87 372.723 385.118 368.537 375.679 364.497C366.24 360.457 357.398 356.672 345.895 356.672C334.392 356.672 325.52 360.477 316.12 364.497C306.72 368.517 296.919 372.723 284.418 372.723C271.918 372.723 262.146 368.537 252.717 364.497C243.288 360.457 234.435 356.672 222.932 356.672C211.43 356.672 202.558 360.477 193.158 364.497C183.758 368.517 173.957 372.723 161.456 372.723C155.823 372.703 150.221 371.866 144.828 370.239L146.197 365.543C151.147 367.038 156.286 367.809 161.456 367.832C172.959 367.832 181.831 364.027 191.231 360.007C200.631 355.987 210.432 351.781 222.932 351.781C235.433 351.781 245.205 355.967 254.634 360.007C264.063 364.047 272.916 367.832 284.418 367.832C295.921 367.832 304.793 364.027 314.193 360.007C323.593 355.987 333.394 351.781 345.895 351.781C358.395 351.781 368.167 355.967 377.606 360.007C387.045 364.047 395.878 367.832 407.38 367.832C418.883 367.832 427.765 364.027 437.155 360.007C446.545 355.987 456.356 351.781 468.866 351.781C481.377 351.781 491.129 355.967 500.568 360.007C510.007 364.047 518.84 367.832 530.343 367.832C535.51 367.81 540.646 367.039 545.592 365.543L546.971 370.239C541.577 371.866 535.976 372.703 530.343 372.723Z" fill="#33CCE5"/>
<path d="M530.343 348.7C517.842 348.7 508.08 344.523 498.641 340.483C489.202 336.444 480.369 332.658 468.866 332.658C457.364 332.658 448.482 336.463 439.082 340.483C429.682 344.504 419.891 348.7 407.38 348.7C394.87 348.7 385.118 344.523 375.679 340.483C366.24 336.444 357.398 332.658 345.895 332.658C334.392 332.658 325.52 336.463 316.12 340.483C306.72 344.504 296.929 348.7 284.418 348.7C271.908 348.7 262.146 344.523 252.717 340.483C243.288 336.444 234.435 332.658 222.932 332.658C211.43 332.658 202.558 336.463 193.158 340.483C183.758 344.504 173.957 348.7 161.456 348.7C155.823 348.679 150.223 347.845 144.828 346.225L146.197 341.53C151.147 343.021 156.287 343.789 161.456 343.809C172.959 343.809 181.831 340.014 191.231 335.984C200.631 331.954 210.432 327.768 222.932 327.768C235.433 327.768 245.205 331.944 254.634 335.984C264.063 340.024 272.916 343.809 284.418 343.809C295.921 343.809 304.793 340.014 314.193 335.984C323.593 331.954 333.394 327.768 345.895 327.768C358.395 327.768 368.167 331.944 377.606 335.984C387.045 340.024 395.878 343.809 407.38 343.809C418.883 343.809 427.765 340.014 437.155 335.984C446.545 331.954 456.356 327.768 468.866 327.768C481.377 327.768 491.129 331.944 500.568 335.984C510.007 340.024 518.84 343.809 530.343 343.809C535.509 343.79 540.645 343.022 545.592 341.53L546.971 346.225C541.576 347.845 535.976 348.679 530.343 348.7Z" fill="#33CCE5"/>
<path d="M530.343 324.588C517.842 324.588 508.08 320.412 498.641 316.372C489.202 312.332 480.369 308.547 468.866 308.547C457.364 308.547 448.482 312.342 439.082 316.372C429.682 320.402 419.891 324.588 407.38 324.588C394.87 324.588 385.118 320.412 375.679 316.372C366.24 312.332 357.398 308.547 345.895 308.547C334.392 308.547 325.52 312.342 316.12 316.372C306.72 320.402 296.919 324.588 284.418 324.588C271.918 324.588 262.146 320.412 252.717 316.372C243.288 312.332 234.435 308.547 222.932 308.547C211.43 308.547 202.558 312.342 193.158 316.372C183.758 320.402 173.957 324.588 161.456 324.588C155.823 324.569 150.221 323.732 144.828 322.104L146.197 317.419C151.147 318.91 156.287 319.678 161.456 319.698C172.959 319.698 181.831 315.893 191.231 311.873C200.631 307.852 210.432 303.656 222.932 303.656C235.433 303.656 245.205 307.833 254.634 311.873C264.063 315.912 272.916 319.698 284.418 319.698C295.921 319.698 304.793 315.893 314.193 311.873C323.593 307.852 333.394 303.656 345.895 303.656C358.395 303.656 368.167 307.833 377.606 311.873C387.045 315.912 395.878 319.698 407.38 319.698C418.883 319.698 427.765 315.893 437.155 311.873C446.545 307.852 456.366 303.705 468.866 303.705C481.367 303.705 491.129 307.882 500.568 311.922C510.007 315.961 518.84 319.747 530.343 319.747C535.512 319.705 540.649 318.914 545.592 317.399L546.971 322.084C541.578 323.719 535.977 324.562 530.343 324.588Z" fill="#33CCE5"/>
<path d="M530.343 300.526C517.842 300.526 508.08 296.34 498.641 292.3C489.202 288.26 480.369 284.475 468.866 284.475C457.364 284.475 448.482 288.28 439.082 292.3C429.682 296.32 419.891 300.526 407.38 300.526C394.87 300.526 385.118 296.34 375.679 292.3C366.24 288.26 357.398 284.475 345.895 284.475C334.392 284.475 325.52 288.28 316.12 292.3C306.72 296.32 296.919 300.526 284.418 300.526C271.918 300.526 262.146 296.34 252.717 292.3C243.288 288.26 234.435 284.475 222.932 284.475C211.43 284.475 202.558 288.28 193.158 292.3C183.758 296.32 173.957 300.526 161.456 300.526C155.823 300.506 150.221 299.67 144.828 298.042L146.197 293.347C151.147 294.841 156.286 295.612 161.456 295.636C172.959 295.636 181.831 291.831 191.231 287.81C200.631 283.79 210.432 279.584 222.932 279.584C235.433 279.584 245.205 283.771 254.634 287.81C264.063 291.85 272.916 295.636 284.418 295.636C295.921 295.636 304.793 291.831 314.193 287.81C323.593 283.79 333.394 279.584 345.895 279.584C358.395 279.584 368.167 283.771 377.606 287.81C387.045 291.85 395.878 295.636 407.38 295.636C418.883 295.636 427.765 291.831 437.155 287.81C446.545 283.79 456.356 279.584 468.866 279.584C481.377 279.584 491.129 283.771 500.568 287.81C510.007 291.85 518.84 295.636 530.343 295.636C535.51 295.613 540.646 294.842 545.592 293.347L546.971 298.042C541.577 299.67 535.976 300.506 530.343 300.526Z" fill="#33CCE5"/>
<path d="M530.343 276.454C517.842 276.454 508.08 272.278 498.641 268.238C489.202 264.198 480.369 260.413 468.866 260.413C457.364 260.413 448.482 264.218 439.082 268.238C429.682 272.258 419.891 276.454 407.38 276.454C394.87 276.454 385.118 272.278 375.679 268.238C366.24 264.198 357.398 260.413 345.895 260.413C334.392 260.413 325.52 264.218 316.12 268.238C306.72 272.258 296.919 276.454 284.418 276.454C271.918 276.454 262.146 272.278 252.717 268.238C243.288 264.198 234.435 260.413 222.932 260.413C211.43 260.413 202.558 264.218 193.158 268.238C183.758 272.258 173.957 276.454 161.456 276.454C155.823 276.433 150.223 275.6 144.828 273.979L146.197 269.284C151.147 270.776 156.287 271.543 161.456 271.564C172.959 271.564 181.831 267.768 191.231 263.738C200.631 259.708 210.432 255.522 222.932 255.522C235.433 255.522 245.205 259.699 254.634 263.738C264.063 267.778 272.916 271.564 284.418 271.564C295.921 271.564 304.793 267.768 314.193 263.738C323.593 259.708 333.394 255.522 345.895 255.522C358.395 255.522 368.167 259.699 377.606 263.738C387.045 267.778 395.878 271.564 407.38 271.564C418.883 271.564 427.765 267.768 437.155 263.738C446.545 259.708 456.356 255.522 468.866 255.522C481.377 255.522 491.129 259.699 500.568 263.738C510.007 267.778 518.84 271.564 530.343 271.564C535.509 271.544 540.645 270.777 545.592 269.284L546.971 273.979C541.576 275.6 535.976 276.433 530.343 276.454Z" fill="#33CCE5"/>
<path d="M530.343 252.392C517.842 252.392 508.08 248.215 498.641 244.176C489.202 240.136 480.369 236.35 468.866 236.35C457.364 236.35 448.482 240.146 439.082 244.176C429.682 248.205 419.891 252.392 407.38 252.392C394.87 252.392 385.118 248.215 375.679 244.176C366.24 240.136 357.398 236.35 345.895 236.35C334.392 236.35 325.52 240.146 316.12 244.176C306.72 248.205 296.919 252.392 284.418 252.392C271.918 252.392 262.146 248.215 252.717 244.176C243.288 240.136 234.435 236.35 222.932 236.35C211.43 236.35 202.558 240.146 193.158 244.176C183.758 248.205 173.957 252.392 161.456 252.392C155.823 252.372 150.221 251.535 144.828 249.907L146.197 245.222C151.147 246.714 156.287 247.481 161.456 247.501C172.959 247.501 181.831 243.696 191.231 239.676C200.631 235.656 210.432 231.46 222.932 231.46C235.433 231.46 245.205 235.636 254.634 239.676C264.063 243.716 272.916 247.501 284.418 247.501C295.921 247.501 304.793 243.696 314.193 239.676C323.593 235.656 333.394 231.46 345.895 231.46C358.395 231.46 368.167 235.636 377.606 239.676C387.045 243.716 395.878 247.501 407.38 247.501C418.883 247.501 427.765 243.696 437.155 239.676C446.545 235.656 456.356 231.46 468.866 231.46C481.377 231.46 491.129 235.636 500.568 239.676C510.007 243.716 518.84 247.501 530.343 247.501C535.509 247.482 540.645 246.714 545.592 245.222L546.971 249.907C541.577 251.535 535.976 252.372 530.343 252.392Z" fill="#33CCE5"/>
<path d="M530.343 228.33C517.842 228.33 508.08 224.143 498.641 220.104C489.202 216.064 480.369 212.278 468.866 212.278C457.364 212.278 448.482 216.083 439.082 220.104C429.682 224.124 419.891 228.33 407.38 228.33C394.87 228.33 385.118 224.143 375.679 220.104C366.24 216.064 357.398 212.278 345.895 212.278C334.392 212.278 325.52 216.083 316.12 220.104C306.72 224.124 296.919 228.33 284.418 228.33C271.918 228.33 262.146 224.143 252.717 220.104C243.288 216.064 234.435 212.278 222.932 212.278C211.43 212.278 202.558 216.083 193.158 220.104C183.758 224.124 173.957 228.33 161.456 228.33C155.823 228.31 150.221 227.473 144.828 225.845L146.197 221.15C151.147 222.645 156.286 223.416 161.456 223.439C172.959 223.439 181.831 219.634 191.231 215.614C200.631 211.594 210.432 207.388 222.932 207.388C235.433 207.388 245.195 211.574 254.634 215.614C264.073 219.654 272.916 223.439 284.418 223.439C295.921 223.439 304.793 219.634 314.193 215.614C323.593 211.594 333.394 207.388 345.895 207.388C358.395 207.388 368.167 211.574 377.606 215.614C387.045 219.654 395.878 223.439 407.38 223.439C418.883 223.439 427.765 219.634 437.155 215.614C446.545 211.594 456.356 207.388 468.866 207.388C481.377 207.388 491.129 211.574 500.568 215.614C510.007 219.654 518.84 223.439 530.343 223.439C535.51 223.416 540.646 222.645 545.592 221.15L546.971 225.845C541.577 227.473 535.976 228.31 530.343 228.33Z" fill="#33CCE5"/>
<path d="M530.343 204.258C517.842 204.258 508.08 200.081 498.641 196.041C489.202 192.002 480.369 188.216 468.866 188.216C457.364 188.216 448.482 192.021 439.082 196.041C429.682 200.061 419.891 204.258 407.38 204.258C394.87 204.258 385.118 200.081 375.679 196.041C366.24 192.002 357.398 188.216 345.895 188.216C334.392 188.216 325.52 192.021 316.12 196.041C306.72 200.061 296.919 204.258 284.418 204.258C271.918 204.258 262.146 200.081 252.717 196.041C243.288 192.002 234.435 188.216 222.932 188.216C211.43 188.216 202.558 192.021 193.158 196.041C183.758 200.061 173.957 204.258 161.456 204.258C155.823 204.237 150.223 203.403 144.828 201.783L146.197 197.088C151.147 198.579 156.287 199.347 161.456 199.367C172.959 199.367 181.831 195.572 191.231 191.542C200.631 187.512 210.432 183.325 222.932 183.325C235.433 183.325 245.205 187.502 254.634 191.542C264.063 195.582 272.916 199.367 284.418 199.367C295.921 199.367 304.793 195.572 314.193 191.542C323.593 187.512 333.394 183.325 345.895 183.325C358.395 183.325 368.167 187.502 377.606 191.542C387.045 195.582 395.878 199.367 407.38 199.367C418.883 199.367 427.765 195.572 437.155 191.542C446.545 187.512 456.356 183.325 468.866 183.325C481.377 183.325 491.129 187.502 500.568 191.542C510.007 195.582 518.84 199.367 530.343 199.367C535.509 199.348 540.645 198.58 545.592 197.088L546.971 201.783C541.576 203.403 535.976 204.237 530.343 204.258Z" fill="#33CCE5"/>
<path d="M530.343 180.195C517.842 180.195 508.08 176.019 498.641 171.979C489.202 167.939 480.369 164.154 468.866 164.154C457.364 164.154 448.482 167.949 439.082 171.979C429.682 176.009 419.891 180.195 407.38 180.195C394.87 180.195 385.118 176.019 375.679 171.979C366.24 167.939 357.398 164.154 345.895 164.154C334.392 164.154 325.52 167.949 316.12 171.979C306.72 176.009 296.919 180.195 284.418 180.195C271.918 180.195 262.146 176.019 252.717 171.979C243.288 167.939 234.435 164.154 222.932 164.154C211.43 164.154 202.558 167.949 193.158 171.979C183.758 176.009 173.957 180.195 161.456 180.195C155.823 180.176 150.221 179.339 144.828 177.711L146.197 173.026C151.147 174.517 156.287 175.285 161.456 175.305C172.959 175.305 181.831 171.5 191.231 167.48C200.631 163.459 210.432 159.263 222.932 159.263C235.433 159.263 245.205 163.44 254.634 167.48C264.063 171.519 272.916 175.305 284.418 175.305C295.921 175.305 304.793 171.5 314.193 167.48C323.593 163.459 333.394 159.263 345.895 159.263C358.395 159.263 368.167 163.44 377.606 167.48C387.045 171.519 395.878 175.305 407.38 175.305C418.883 175.305 427.765 171.5 437.155 167.48C446.545 163.459 456.356 159.263 468.866 159.263C481.377 159.263 491.129 163.44 500.568 167.48C510.007 171.519 518.84 175.305 530.343 175.305C535.509 175.285 540.645 174.518 545.592 173.026L546.971 177.711C541.577 179.339 535.976 180.176 530.343 180.195Z" fill="#33CCE5"/>
<path d="M530.343 156.133C517.842 156.133 508.08 151.947 498.641 147.907C489.202 143.867 480.369 140.082 468.866 140.082C457.364 140.082 448.482 143.887 439.082 147.907C429.682 151.927 419.891 156.133 407.38 156.133C394.87 156.133 385.118 151.947 375.679 147.907C366.24 143.867 357.398 140.082 345.895 140.082C334.392 140.082 325.52 143.887 316.12 147.907C306.72 151.927 296.919 156.133 284.418 156.133C271.918 156.133 262.146 151.947 252.717 147.907C243.288 143.867 234.435 140.082 222.932 140.082C211.43 140.082 202.558 143.887 193.158 147.907C183.758 151.927 173.957 156.133 161.456 156.133C155.823 156.113 150.221 155.276 144.828 153.649L146.197 148.954C151.147 150.448 156.286 151.219 161.456 151.242C172.959 151.242 181.831 147.437 191.231 143.417C200.631 139.397 210.432 135.191 222.932 135.191C235.433 135.191 245.205 139.378 254.634 143.417C264.063 147.457 272.916 151.242 284.418 151.242C295.921 151.242 304.793 147.437 314.193 143.417C323.593 139.397 333.394 135.191 345.895 135.191C358.395 135.191 368.167 139.378 377.606 143.417C387.045 147.457 395.878 151.242 407.38 151.242C418.883 151.242 427.765 147.437 437.155 143.417C446.545 139.397 456.356 135.191 468.866 135.191C481.377 135.191 491.129 139.378 500.568 143.417C510.007 147.457 518.84 151.242 530.343 151.242C535.51 151.22 540.646 150.449 545.592 148.954L546.971 153.649C541.577 155.276 535.976 156.113 530.343 156.133Z" fill="#33CCE5"/>
<path d="M407.38 132.061C394.87 132.061 385.118 127.884 375.679 123.845L377.635 119.345C387.025 123.375 395.907 127.17 407.41 127.17C418.912 127.17 427.794 123.375 437.184 119.345L439.14 123.845C429.643 127.884 419.891 132.061 407.38 132.061Z" fill="#33CCE5"/>
<path d="M284.418 132.061C271.907 132.061 262.145 127.884 252.716 123.845L254.672 119.345C264.072 123.375 272.954 127.17 284.457 127.17C295.96 127.17 304.831 123.375 314.231 119.345L316.188 123.845C306.71 127.884 296.928 132.061 284.418 132.061Z" fill="#33CCE5"/>
<path d="M161.456 132.061C155.823 132.041 150.222 131.208 144.828 129.586L146.197 124.891C151.147 126.383 156.286 127.15 161.456 127.17C172.959 127.17 181.831 123.375 191.231 119.345L193.187 123.845C183.718 127.884 173.957 132.061 161.456 132.061Z" fill="#33CCE5"/>
</svg>
