<svg width="76" height="63" viewBox="0 0 76 63" fill="none" xmlns="http://www.w3.org/2000/svg">
<path d="M44.5438 51.2295C52.2857 48.9128 57.4344 44.653 59.99 38.4502C61.0423 35.984 61.5685 32.9947 61.5685 29.4822H43.9801V0H76V23.653C76 34.3399 73.3693 43.0836 68.1078 49.8843C62.9214 56.6103 55.0668 60.9822 44.5438 63V51.2295ZM0.563731 51.2295C8.15531 48.8381 13.2665 44.7278 15.8972 38.8986C17.3253 35.8345 17.9267 32.6957 17.7012 29.4822H0V0H32.1327V23.653C32.1327 34.6388 29.4268 43.4573 24.015 50.1085C18.6783 56.7598 10.8612 61.0569 0.563731 63V51.2295Z" fill="#E5E5E5"/>
</svg>
