<svg width="47" height="59" viewBox="0 0 47 59" fill="none" xmlns="http://www.w3.org/2000/svg">
<path fill-rule="evenodd" clip-rule="evenodd" d="M39.767 7.642C40.3521 8.37188 40.7866 9.21055 41.0455 10.1095C41.3043 11.0084 41.3823 11.9497 41.275 12.879C41.1177 14.4586 40.4455 15.9428 39.362 17.103L30.9 25.564L27.833 22.497L23.909 18.58V18.586L20.947 15.624L20.892 15.57C20.354 15.0601 19.6787 14.7187 18.9492 14.5878C18.2196 14.4569 17.4677 14.5421 16.7861 14.8331C16.1044 15.1241 15.5227 15.6081 15.1126 16.2255C14.7025 16.843 14.4819 17.5668 14.478 18.308V31.59L14.469 31.598V39.759C14.4707 40.4285 14.6503 41.0855 14.9894 41.6627C15.3286 42.2399 15.815 42.7166 16.399 43.044C16.963 43.3734 17.6048 43.546 18.258 43.544C19.237 43.5427 20.1788 43.1687 20.892 42.498L27.833 35.559L30.899 32.492L39.281 40.872L39.367 40.954C40.4592 42.1295 41.133 43.6325 41.284 45.23C41.3852 46.1511 41.3038 47.083 41.0443 47.9726C40.7849 48.8621 40.3525 49.6918 39.772 50.414C39.1383 51.2243 38.3375 51.8886 37.4242 52.362C36.5109 52.8353 35.5064 53.1064 34.479 53.157H4.9V4.898H34.439C35.4727 4.94262 36.4845 5.21107 37.4044 5.68483C38.3243 6.15858 39.1303 6.82634 39.767 7.642ZM26.45 28.045L27.432 29.028L26.449 30.011L19.366 37.094V32.194L19.373 32.203V20.983L23.206 24.816L23.212 24.81L26.448 28.048L26.45 28.045ZM34.379 0H0V58.061H4.9H34.418C36.7854 57.9966 39.0824 57.2412 41.0258 55.8878C42.9693 54.5344 44.4745 52.642 45.3559 50.4438C46.2374 48.2457 46.4566 45.8377 45.9867 43.5165C45.5167 41.1953 44.3781 39.0622 42.711 37.38L34.361 29.03L42.71 20.681C44.6761 18.7213 45.8927 16.1342 46.148 13.37C46.3225 11.8126 46.1878 10.236 45.7518 8.73075C45.3157 7.22546 44.5869 5.82104 43.607 4.598C42.4964 3.20586 41.0952 2.07309 39.5013 1.27888C37.9074 0.484679 36.1592 0.048213 34.379 0V0Z" fill="#00c0e1"/>
</svg>
