<?xml version="1.0" encoding="UTF-8"?>
<svg width="20px" height="32px" viewBox="0 0 20 32" version="1.1" xmlns="http://www.w3.org/2000/svg" xmlns:xlink="http://www.w3.org/1999/xlink">
    <!-- Generator: Sketch 46.2 (44496) - http://www.bohemiancoding.com/sketch -->
    <title>GetAppIcon@1x</title>
    <desc>Created with Sketch.</desc>
    <defs></defs>
    <g id="Assets" stroke="none" stroke-width="1" fill="none" fill-rule="evenodd">
        <g id="Assets-Common" transform="translate(-502.000000, -200.000000)">
            <g id="GetAppIcon" transform="translate(502.000000, 200.000000)">
                <rect id="Rectangle-5" stroke="#979797" stroke-width="0.01" x="0.005" y="0.005" width="19.99" height="31.99"></rect>
                <g id="Phone" transform="translate(3.000000, 3.000000)">
                    <rect id="Rectangle-4" fill="#0AD1F2" x="1" y="1" width="13" height="19"></rect>
                    <path d="M13.464,25 L0.569,25 C0.2725,25 0,24.4226227 0,24.0773867 L0,18.3488513 L0,0.327535844 C0,-0.0177000842 0.2725,0.000156946559 0.569,0.000156946559 L13.464,0.000156946559 C13.7605,0.000156946559 14,-0.0177000842 14,0.327535844 L14,24.0773867 C14,24.4226227 13.7605,25 13.464,25 L13.464,25 Z" id="Stroke-180" stroke="#C9D2D6" stroke-width="2" stroke-linecap="round" stroke-linejoin="round"></path>
                    <path d="M0,19 L14,19" id="Stroke-182" stroke="#C9D2D6" stroke-width="2"></path>
                    <path d="M6.5,21 C5.6714751,21 5,21.67125 5,22.5 C5,23.328 5.6714751,24 6.5,24 C7.3285249,24 8,23.328 8,22.5 C8,21.67125 7.3285249,21 6.5,21" id="Fill-186" fill="#0AD1F2"></path>
                </g>
            </g>
        </g>
    </g>
</svg>