<svg xmlns="http://www.w3.org/2000/svg" width="39" height="53" viewBox="0 0 39 53">
    <g fill="none" fill-rule="evenodd" transform="translate(-1)">
        <path fill="#898390" d="M24.442 51.106c0 .613-1.991 1.11-4.444 1.11s-4.444-.497-4.444-1.11c0-.614 1.991-1.111 4.444-1.111s4.444.497 4.444 1.11"/>
        <path fill="#F64656" d="M19.998 51.106s6.281-8.448 8.887-12.152c2.607-3.704 3.333-6.001 3.333-8.956 0-6.75-5.47-12.22-12.22-12.22-6.75 0-12.22 5.47-12.22 12.22 0 2.955.726 5.252 3.332 8.956 2.607 3.704 8.888 12.152 8.888 12.152"/>
        <path fill="#FFF" stroke="#FFF" d="M25.553 29.998a5.554 5.554 0 0 1-5.555 5.555 5.554 5.554 0 0 1-5.555-5.555 5.554 5.554 0 0 1 5.555-5.555 5.554 5.554 0 0 1 5.555 5.555z"/>
        <rect width="39" height="17" x="1" fill="#F64656" rx="8.5"/>
        <text fill="#FFF" font-family="Heebo-Black, Heebo" font-size="9" font-weight="700">
            <tspan x="5" y="12">STOP 1</tspan>
        </text>
    </g>
</svg>
