<?xml version="1.0" encoding="UTF-8"?>
<svg width="27px" height="30px" viewBox="0 0 27 30" version="1.1" xmlns="http://www.w3.org/2000/svg" xmlns:xlink="http://www.w3.org/1999/xlink">
    <!-- Generator: sketchtool 57 (101010) - https://sketch.com -->
    <title>1EB1D9F2-5975-4D45-8D2B-1430DFCCEF64@0.5x</title>
    <desc>Created with sketchtool.</desc>
    <g id="Home" stroke="none" stroke-width="1" fill="none" fill-rule="evenodd">
        <g id="markers" transform="translate(-94.000000, -291.000000)">
            <g id="@1xDropMarker-Copy" transform="translate(95.000000, 292.000000)">
                <rect id="bounds" stroke="#979797" stroke-width="0.01" x="0.0035" y="0.0035" width="25.193" height="27.993"></rect>
                <g id="Group-2" transform="translate(2.800000, 2.100000)" fill-rule="nonzero">
                    <path d="M16.2938462,21.3303789 C16.2938462,23.0585233 13.4302614,24.4607578 9.89783676,24.4607578 C6.36358477,24.4607578 3.5,23.0585233 3.5,21.3303789 C3.5,19.6008651 6.36358477,18.2 9.89783676,18.2 C13.4302614,18.2 16.2938462,19.6008651 16.2938462,21.3303789" id="Fill-1" fill="#C9D2D6" style="mix-blend-mode: multiply;"></path>
                    <path d="M6.66568683,19.0880724 C2.7904139,17.7808209 0,14.1162785 0,9.8 C0,4.38760945 4.38760945,0 9.8,0 C15.2123906,0 19.6,4.38760945 19.6,9.8 C19.6,14.1162785 16.8095861,17.7808209 12.9343131,19.0880724 L9.8,21.7 L6.66568683,19.0880724 Z" id="Combined-Shape" fill="#434343"></path>
                    <circle id="Oval" fill="#0068C9" cx="9.8" cy="9.8" r="8.4"></circle>
                </g>
            </g>
        </g>
    </g>
</svg>