<?xml version="1.0" encoding="UTF-8"?>
<svg width="22px" height="22px" viewBox="0 0 22 22" version="1.1" xmlns="http://www.w3.org/2000/svg" xmlns:xlink="http://www.w3.org/1999/xlink">
    <!-- Generator: Sketch 46.2 (44496) - http://www.bohemiancoding.com/sketch -->
    <title>CheckON@1x</title>
    <desc>Created with Sketch.</desc>
    <defs>
        <rect id="path-1" x="1" y="1" width="20" height="20"></rect>
    </defs>
    <g id="Assets" stroke="none" stroke-width="1" fill="none" fill-rule="evenodd">
        <g id="Assets-Common" transform="translate(-564.000000, -202.000000)">
            <g id="CheckON" transform="translate(564.000000, 202.000000)">
                <rect id="Rectangle-3" stroke="#F0F5F7" stroke-width="0.01" x="0.005" y="0.005" width="21.99" height="21.99"></rect>
                <g id="Rectangle-3">
                    <use fill="#87E9FF" fill-rule="evenodd" xlink:href="#path-1"></use>
                    <rect stroke="#0180A8" stroke-width="1" x="1.5" y="1.5" width="19" height="19"></rect>
                </g>
                <polygon id="Shape" fill="#000000" points="8.16853095 13.8896346 5.05891126 10.7800149 4 11.8314691 8.16853095 16 17.1170768 7.05145414 16.0656227 6"></polygon>
            </g>
        </g>
    </g>
</svg>