<svg xmlns="http://www.w3.org/2000/svg" width="27.381" height="28.044" viewBox="0 0 27.381 28.044">
  <g id="Group_200" data-name="Group 200" transform="translate(-785.5 -525.456)">
    <path id="Path_965" data-name="Path 965" d="M11289.986,1104.592v-18.725l13.294-6.5,12.087,6.5v18.725" transform="translate(-10503.486 -552.907)" fill="none" stroke="#333" stroke-linecap="round" stroke-linejoin="round" stroke-width="2"/>
    <g id="Group_199" data-name="Group 199">
      <g id="Group_198" data-name="Group 198">
        <rect id="Rectangle_199" data-name="Rectangle 199" width="8" height="8" rx="1" transform="translate(790 544.5)" fill="#fff" stroke="#333" stroke-linecap="round" stroke-linejoin="round" stroke-width="2"/>
        <rect id="Rectangle_200" data-name="Rectangle 200" width="8" height="8" rx="1" transform="translate(801 544.5)" fill="#fff" stroke="#333" stroke-linecap="round" stroke-linejoin="round" stroke-width="2"/>
      </g>
      <rect id="Rectangle_201" data-name="Rectangle 201" width="8" height="8" rx="1" transform="translate(795.5 534)" fill="#fff" stroke="#009393" stroke-linecap="round" stroke-linejoin="round" stroke-width="2"/>
    </g>
  </g>
</svg>
