<svg id="Icons" xmlns="http://www.w3.org/2000/svg" width="29.283" height="26.679" viewBox="0 0 29.283 26.679">
  <g id="Rounded" transform="translate(0)">
    <g id="Maps">
      <g id="_-Round-_-Maps-_-pin_drop" data-name="-Round-/-Maps-/-pin_drop">
        <g id="Group_127" data-name="Group 127">
          <path id="Path" d="M0,0H29.283V26.679H0Z" fill="none" fill-rule="evenodd"/>
          <path id="_-Icon-Color" data-name="🔹-Icon-Color" d="M20.861,8.8A7.082,7.082,0,0,0,13.541,2,7.082,7.082,0,0,0,6.22,8.8c0,3.957,4.417,9.287,6.381,11.475a1.271,1.271,0,0,0,1.867,0C16.445,18.09,20.861,12.761,20.861,8.8ZM11.1,8.8a2.366,2.366,0,0,1,2.44-2.268A2.366,2.366,0,0,1,15.981,8.8a2.358,2.358,0,0,1-2.44,2.268A2.366,2.366,0,0,1,11.1,8.8ZM5,23.545a1.183,1.183,0,0,0,1.22,1.134H20.861a1.137,1.137,0,1,0,0-2.268H6.22A1.183,1.183,0,0,0,5,23.545Z" transform="translate(1.101)" fill="#0dd" fill-rule="evenodd"/>
        </g>
      </g>
    </g>
  </g>
</svg>
