<svg xmlns="http://www.w3.org/2000/svg" width="30.174" height="26.12" viewBox="0 0 30.174 26.12">
  <g id="Group_203" data-name="Group 203" transform="translate(-684.88 -493.519)">
    <path id="Path_405" data-name="Path 405" d="M26.5,6.156,23.28,1.5A3.5,3.5,0,0,0,20.411,0H6.71A3.5,3.5,0,0,0,3.84,1.5L.618,6.156A3.493,3.493,0,0,0,0,8.136V23.627c0,1.929,1.564,2.493,3.493,2.493H18.146L27.14,15.011l-.02-6.875A3.493,3.493,0,0,0,26.5,6.156ZM21.411,1.712a.776.776,0,0,1,.64.336L24.73,6.966H14.7V1.712ZM6.069,2.048a.776.776,0,0,1,.64-.336h6.385V6.966H2.712ZM25.455,15.011H27.14L18.146,26.12V24.408H2.493a.776.776,0,0,1-.781-.781V9.356a.678.678,0,0,1,.678-.678H24.73a.678.678,0,0,1,.678.678Z" transform="translate(684.88 493.519)" fill="#333"/>
    <g id="corner-down-left" transform="translate(704.578 506.579)">
      <path id="Path" d="M2.961,0,0,2.961,2.961,5.922" transform="translate(0 3.553)" fill="none" stroke="#c83f0c" stroke-linecap="round" stroke-linejoin="round" stroke-miterlimit="10" stroke-width="2"/>
      <path id="Path-2" data-name="Path" d="M9.475,0V4.146A2.369,2.369,0,0,1,7.107,6.514H0" fill="none" stroke="#c83f0c" stroke-linecap="round" stroke-linejoin="round" stroke-miterlimit="10" stroke-width="2"/>
    </g>
  </g>
</svg>
